<?xml version="1.0" standalone="no"?>
<!DOCTYPE svg PUBLIC "-//W3C//DTD SVG 1.1//EN" "http://www.w3.org/Graphics/SVG/1.1/DTD/svg11.dtd" >
<svg xmlns="http://www.w3.org/2000/svg" xmlns:xlink="http://www.w3.org/1999/xlink" version="1.1">
<metadata>
Created by FontForge 20170731 at Fri Jan  1 02:30:17 1904
 By ,,,
Copyright (c) 1990 Adobe Systems Incorporated.  All Rights Reserved.Helvetica is a trademark of Linotype AG and/or its subsidiaries.
</metadata>
<defs>
<font id="Helvetica87-CondensedHeavy" horiz-adv-x="500" >
  <font-face 
    font-family="Helvetica87-CondensedHeavy"
    font-weight="900"
    font-stretch="expanded"
    units-per-em="1000"
    panose-1="2 11 10 0 0 0 0 0 0 0"
    ascent="800"
    descent="-200"
    x-height="541"
    cap-height="714"
    bbox="-32 -230 1100 975"
    underline-thickness="50"
    underline-position="-150"
    unicode-range="U+0020-2122"
  />
<missing-glyph horiz-adv-x="502" 
d="M-1 0h500v500h-500v-500zM9 10v480h480v-480h-480z" />
    <glyph glyph-name=".notdef" horiz-adv-x="502" 
d="M-1 0h500v500h-500v-500zM9 10v480h480v-480h-480z" />
    <glyph glyph-name=".null" horiz-adv-x="0" 
 />
    <glyph glyph-name="nonmarkingreturn" horiz-adv-x="333" 
 />
    <glyph glyph-name="space" unicode=" " horiz-adv-x="260" 
 />
    <glyph glyph-name="exclam" unicode="!" horiz-adv-x="334" 
d="M86 480l20 -276h124l18 276v234h-162v-234zM90 0h156v150h-156v-150z" />
    <glyph glyph-name="quotedbl" unicode="&#x22;" horiz-adv-x="481" 
d="M279 365h130v349h-130v-349zM72 365h130v349h-130v-349z" />
    <glyph glyph-name="numbersign" unicode="#" horiz-adv-x="520" 
d="M66 0h110l23 171h72l-23 -171h110l23 171h89v112h-73l18 128h89v112h-73l24 171h-110l-24 -171h-72l24 171h-111l-23 -171h-89v-112h73l-18 -128h-89v-112h73zM287 283h-72l18 128h72z" />
    <glyph glyph-name="dollar" unicode="$" horiz-adv-x="520" 
d="M217 -102h78v88q100 8 152 61t52 160q0 49 -15.5 84t-41 57.5t-54 36t-72.5 30.5q-64 24 -94 45.5t-30 64.5q0 71 67 71q37 0 51 -23q14 -22 14 -71h162v17q0 80 -45.5 130.5t-145.5 58.5v74h-78v-74q-100 -8 -146.5 -63.5t-46.5 -140.5q0 -53 16 -89.5t42 -60t54.5 -37
t72.5 -30.5q63 -23 92.5 -44.5t29.5 -65.5q0 -33 -18 -56t-58 -23t-56 24t-16 67v23h-162v-46q0 -47 15.5 -81t42.5 -55t62 -31.5t76 -12.5v-88z" />
    <glyph glyph-name="percent" unicode="%" horiz-adv-x="778" 
d="M137 516q0 56 8.5 82.5t31.5 26.5t31.5 -19.5t8.5 -84.5q0 -68 -7.5 -91t-32.5 -23q-23 0 -31.5 25t-8.5 84zM183 -14h101l314 722h-101zM561 178q0 56 8.5 82.5t31.5 26.5t31.5 -19.5t8.5 -84.5q0 -68 -7.5 -91t-32.5 -23q-23 0 -31.5 25t-8.5 84zM19 516
q0 -45 5.5 -78.5t21.5 -59t48 -40t84 -14.5q51 0 83 14.5t48 40.5t21 58.5t5 78.5q0 45 -5 78.5t-21 59t-48 40t-84 14.5q-47 0 -78 -13.5t-48.5 -38.5t-24.5 -59.5t-7 -80.5zM443 178q0 -45 5.5 -78.5t21.5 -59t48 -40t84 -14.5q51 0 83 14.5t48 40.5t21 58.5t5 78.5
q0 45 -5 78.5t-21 59t-48 40t-84 14.5q-47 0 -78 -13.5t-48.5 -38.5t-24.5 -59.5t-7 -80.5z" />
    <glyph glyph-name="ampersand" unicode="&#x26;" horiz-adv-x="630" 
d="M224 573q0 25 16.5 40t38.5 15q24 0 41 -15.5t17 -40.5q0 -30 -15.5 -51t-46.5 -47q-25 31 -38 53.5t-13 45.5zM342 146q-14 -17 -34.5 -26.5t-41.5 -9.5q-37 0 -63.5 26.5t-26.5 61.5q0 52 59 94zM348 375q63 49 94 88.5t31 98.5q0 77 -54 118.5t-136 41.5
q-85 0 -140 -43t-55 -124q0 -36 21 -79t49 -79q-73 -53 -105.5 -97t-32.5 -115q0 -36 12 -70.5t37.5 -64t68.5 -47t101 -17.5q52 0 93.5 14.5t83.5 43.5l32 -44h177l-98 132q41 43 60 95t23 118h-142q-3 -30 -8.5 -52.5t-19.5 -42.5z" />
    <glyph glyph-name="quotesingle" unicode="'" horiz-adv-x="260" 
d="M65 365h130v349h-130v-349z" />
    <glyph glyph-name="parenleft" unicode="(" horiz-adv-x="315" 
d="M320 -184q-50 86 -82.5 203t-32.5 246t32.5 246t82.5 203h-130q-62 -101 -101.5 -216.5t-39.5 -232.5t39.5 -232.5t101.5 -216.5h130z" />
    <glyph glyph-name="parenright" unicode=")" horiz-adv-x="315" 
d="M-5 714q50 -86 82.5 -203t32.5 -246t-32.5 -246t-82.5 -203h130q62 101 101.5 216.5t39.5 232.5t-39.5 232.5t-101.5 216.5h-130z" />
    <glyph glyph-name="asterisk" unicode="*" horiz-adv-x="408" 
d="M8 541l126 -42l-81 -106l73 -54l78 108l78 -108l74 54l-82 106l126 42l-30 86l-123 -48l2 135h-90l2 -135l-124 48z" />
    <glyph glyph-name="plus" unicode="+" horiz-adv-x="600" 
d="M235 0h130v188h188v130h-188v188h-130v-188h-188v-130h188v-188z" />
    <glyph glyph-name="comma" unicode="," horiz-adv-x="260" 
d="M52 6h62q0 -50 -14.5 -73.5t-47.5 -23.5v-78q49 3 80.5 20t47.5 44t22 60t6 76v149h-156v-174z" />
    <glyph glyph-name="hyphen" unicode="-" horiz-adv-x="370" 
d="M34 221h302v136h-302v-136z" />
    <glyph glyph-name="period" unicode="." horiz-adv-x="260" 
d="M52 0h156v180h-156v-180z" />
    <glyph glyph-name="slash" unicode="/" horiz-adv-x="352" 
d="M-6 -14h136l228 742h-136z" />
    <glyph glyph-name="zero" unicode="0" horiz-adv-x="520" 
d="M195 346q0 81 2.5 128.5t9 75.5t19 40t34.5 12t34.5 -12t19.5 -40.5t9 -75.5t2 -128q0 -80 -2 -127t-9 -75t-19.5 -40t-34.5 -12t-34.5 12t-19 40t-9 75t-2.5 127zM493 347q0 97 -7.5 160t-31 108.5t-70 69t-124.5 23.5q-76 0 -123 -27t-70.5 -74.5t-31 -109.5t-8.5 -150
q0 -97 7.5 -160t31 -108.5t70.5 -69t124 -23.5q76 0 123 27t70.5 74.5t31.5 109.5t8 150z" />
    <glyph glyph-name="one" unicode="1" horiz-adv-x="520" 
d="M197 0h168v708h-118q-4 -20 -12.5 -38.5t-27 -35t-49.5 -27t-76 -10.5h-21v-106h136v-491z" />
    <glyph glyph-name="two" unicode="2" horiz-adv-x="520" 
d="M194 472q0 28 1.5 48t7.5 39t19 31t36 12q34 0 46.5 -23.5t12.5 -69.5q0 -24 -2.5 -40t-14 -35.5t-37 -47.5t-69.5 -67q-29 -26 -54.5 -54t-50 -67t-40 -89t-15.5 -109h452v130h-251q10 22 33 47.5t71 70.5q27 25 34 32q35 33 56 58t33.5 49.5t17.5 53.5t5 69
q0 44 -10.5 79.5t-35.5 62t-68 41.5t-105 15q-228 0 -228 -213v-23h156z" />
    <glyph glyph-name="three" unicode="3" horiz-adv-x="520" 
d="M32 208q0 -66 16.5 -109.5t46.5 -68t72 -34.5t98 -10q48 0 88.5 12t70.5 38t47 67t17 96q0 76 -27.5 116.5t-89.5 53.5v2q48 11 74.5 49t26.5 93q0 101 -50.5 148t-155.5 47q-118 0 -173 -52q-54 -50 -54 -156h150q0 56 17 79t48 23q56 0 56 -81q0 -54 -16.5 -80
t-55.5 -26h-46v-106h40q51 0 69.5 -23t18.5 -90q0 -58 -15 -81t-49 -23q-35 0 -48.5 31t-13.5 85h-162z" />
    <glyph glyph-name="four" unicode="4" horiz-adv-x="520" 
d="M276 267h-121l119 237h2v-237zM22 137h254v-137h156v137h66v130h-66v427h-180l-230 -427v-130z" />
    <glyph glyph-name="five" unicode="5" horiz-adv-x="520" 
d="M28 208v-26q0 -94 56 -145t167 -51q120 0 176 60t56 193q0 128 -44.5 187t-141.5 59q-36 0 -70 -15t-47 -41l-2 2l8 133h268v130h-397l-22 -383h156q4 29 20.5 42.5t41.5 13.5q62 0 62 -123q0 -79 -13.5 -115.5t-51.5 -36.5q-34 0 -47 24.5t-13 65.5v26h-162z" />
    <glyph glyph-name="six" unicode="6" horiz-adv-x="520" 
d="M479 527q-1 93 -54 137t-152 44q-84 0 -133.5 -25t-73.5 -72.5t-31.5 -112t-7.5 -167.5q0 -89 8 -149.5t32 -104.5t71 -67.5t123 -23.5q68 0 113.5 20t71.5 54.5t36.5 80.5t10.5 103q0 116 -43 168t-127 52q-94 0 -126 -62h-2q0 117 14.5 158.5t56.5 41.5q28 0 41 -22
q10 -17 10 -53h162zM263 92q-35 0 -48.5 34t-13.5 101q0 54 13 83.5t48 29.5q38 0 50.5 -28t12.5 -97q0 -61 -14 -92t-48 -31z" />
    <glyph glyph-name="seven" unicode="7" horiz-adv-x="520" 
d="M322 552q-37 -49 -72.5 -118t-64.5 -146.5t-46.5 -152.5t-21.5 -135h174q3 58 18 131.5t40.5 151.5t60 152t73.5 134v125h-451v-142h290z" />
    <glyph glyph-name="eight" unicode="8" horiz-adv-x="520" 
d="M260 708q-112 0 -163.5 -49t-51.5 -134q0 -60 25.5 -98.5t71.5 -50.5v-2q-59 -8 -88 -55t-29 -112q0 -51 10.5 -90.5t36 -69t72 -45.5t116.5 -16t116.5 17t72 47t36 69t10.5 88q0 71 -31.5 114.5t-88.5 52.5v2q48 10 74 49.5t26 99.5q0 88 -51 135.5t-164 47.5zM260 422
q-30 0 -44.5 20.5t-14.5 70.5q0 41 13.5 65t45.5 24t45.5 -24t13.5 -65q0 -50 -14.5 -70.5t-44.5 -20.5zM260 316q38 0 52.5 -29t14.5 -82t-14.5 -83t-52.5 -30t-52.5 30t-14.5 83t14.5 82t52.5 29z" />
    <glyph glyph-name="nine" unicode="9" horiz-adv-x="520" 
d="M41 166q2 -93 55 -136.5t151 -43.5q84 0 133.5 25t74 72.5t31.5 112t7 167.5q0 89 -8 150t-32 104.5t-71 67t-123 23.5q-68 0 -113.5 -20t-71 -54.5t-36.5 -80.5t-11 -103q0 -116 43 -168t127 -52q94 0 126 62h2q0 -117 -14.5 -158.5t-56.5 -41.5q-28 0 -41 22
q-10 18 -10 52h-162zM258 354q-38 0 -50.5 28t-12.5 97q0 62 14 92.5t48 30.5q35 0 48.5 -34t13.5 -101q0 -54 -13 -83.5t-48 -29.5z" />
    <glyph glyph-name="colon" unicode=":" horiz-adv-x="260" 
d="M52 0h156v180h-156v-180zM52 352h156v180h-156v-180z" />
    <glyph glyph-name="semicolon" unicode=";" horiz-adv-x="260" 
d="M52 6h62q0 -50 -14.5 -73.5t-47.5 -23.5v-78q49 3 80.5 20t47.5 44t22 60t6 76v149h-156v-174zM52 352h156v180h-156v-180z" />
    <glyph glyph-name="less" unicode="&#x3c;" horiz-adv-x="600" 
d="M47 188l506 -196v130l-338 131l338 131v130l-506 -196v-130z" />
    <glyph glyph-name="equal" unicode="=" horiz-adv-x="600" 
d="M47 297h506v130h-506v-130zM47 79h506v130h-506v-130z" />
    <glyph glyph-name="greater" unicode="&#x3e;" horiz-adv-x="600" 
d="M553 318l-506 196v-130l338 -131l-338 -131v-130l506 196v130z" />
    <glyph glyph-name="question" unicode="?" 
d="M189 491q0 70 14.5 100.5t46.5 30.5q30 0 42.5 -18t12.5 -55q0 -47 -16.5 -74.5t-49.5 -59.5q-27 -27 -39 -43q-18 -25 -26 -57t-8 -79v-32h150v33q0 29 14 51t44 54q42 46 64.5 87t22.5 105q0 92 -55.5 143t-157.5 51q-104 0 -156.5 -56.5t-52.5 -160.5v-20h150zM163 0
h156v150h-156v-150z" />
    <glyph glyph-name="at" unicode="@" horiz-adv-x="800" 
d="M490 375q0 -24 -9 -48.5t-25 -44t-38 -31.5t-47 -12q-34 0 -54.5 24t-20.5 62q0 23 9 46t24.5 42t37.5 30.5t46 11.5q32 0 54.5 -23t22.5 -57zM526 488q-44 67 -121 67q-47 0 -87 -20.5t-69 -56t-44 -79.5t-15 -90q0 -76 44.5 -123t102.5 -47q37 0 68 14.5t52 38.5h2
q4 -53 63 -53q28 0 69.5 16.5t83 50.5t69 89.5t27.5 129.5q0 67 -28.5 123t-78.5 96.5t-114 62t-132 21.5q-79 0 -150 -28t-125 -78t-84 -118.5t-30 -146.5q0 -79 30 -147.5t84 -118.5t125.5 -77.5t152.5 -27.5q96 0 176 41t133 116h-89q-45 -28 -99.5 -45.5t-117.5 -17.5
q-61 0 -114 20.5t-92.5 57.5t-61 87.5t-21.5 109.5q0 58 20 109t57.5 89t90 59.5t114.5 21.5q55 0 103.5 -15.5t85 -45.5t57 -73t20.5 -97q0 -39 -9.5 -71.5t-25 -55t-33.5 -35t-34 -12.5q-19 0 -19 21q0 6 1.5 15t4.5 25l58 250h-87z" />
    <glyph glyph-name="A" unicode="A" horiz-adv-x="574" 
d="M347 266h-122l59 318h2zM2 0h174l25 136h171l26 -136h174l-178 714h-210z" />
    <glyph glyph-name="B" unicode="B" horiz-adv-x="574" 
d="M52 0h248q71 0 118 18t72.5 47.5t35.5 63t10 69.5q0 51 -12.5 85.5t-32 53t-41 26.5t-46.5 12v2q51 10 81.5 54t30.5 107q0 87 -54.5 131.5t-148.5 44.5h-261v-714zM220 590h47q42 0 61.5 -22.5t19.5 -54.5q0 -40 -20 -62t-62 -22h-46v161zM220 317h54q41 0 64.5 -24.5
t23.5 -75.5q0 -41 -21.5 -67t-69.5 -26h-51v193z" />
    <glyph glyph-name="C" unicode="C" horiz-adv-x="537" 
d="M513 466v30q0 123 -57.5 177.5t-171.5 54.5q-85 0 -136 -30t-75 -80.5t-30.5 -110t-6.5 -145.5q0 -95 7 -159t30 -113t70 -76.5t125 -27.5q76 0 125.5 19.5t77 55.5t38 83.5t10.5 110.5v25h-162q-1 -96 -14 -139t-56 -43q-27 0 -42 12t-22.5 41.5t-10 78.5t-2.5 135
q0 78 2.5 123t9.5 73.5t21.5 41.5t39.5 13q40 0 54 -34t14 -116h162z" />
    <glyph glyph-name="D" unicode="D" horiz-adv-x="574" 
d="M52 0h232q82 0 132.5 22.5t76.5 68.5t35.5 115t9.5 174q0 93 -13.5 157t-42.5 103q-54 74 -181 74h-249v-714zM220 590h47q34 0 54 -10t30.5 -34.5t14.5 -65.5t4 -111q0 -80 -5.5 -128.5t-17.5 -73.5t-31.5 -34t-50.5 -9h-45v466z" />
    <glyph glyph-name="E" unicode="E" 
d="M52 0h424v136h-256v163h230v136h-230v143h245v136h-413v-714z" />
    <glyph glyph-name="F" unicode="F" horiz-adv-x="481" 
d="M52 0h168v299h230v136h-230v143h245v136h-413v-714z" />
    <glyph glyph-name="G" unicode="G" horiz-adv-x="556" 
d="M516 497q0 41 -6 77.5t-28 72t-69 58.5t-123 23q-86 0 -138 -26.5t-76.5 -75.5t-32 -115t-7.5 -169q0 -91 8 -155t30 -109t63.5 -68.5t107.5 -23.5q55 0 95.5 18.5t58.5 63.5h2l4 -68h115v383h-235v-112h79v-23q0 -76 -17.5 -113t-59.5 -37q-25 0 -40 13t-23 42.5
t-11 76.5t-3 126q0 78 2.5 125t10.5 76q15 59 64 59q22 0 35.5 -11.5t20.5 -29.5t9 -37t2 -41h162z" />
    <glyph glyph-name="H" unicode="H" horiz-adv-x="574" 
d="M52 0h168v305h134v-305h168v714h-168v-267h-134v267h-168v-714z" />
    <glyph glyph-name="I" unicode="I" horiz-adv-x="278" 
d="M55 0h168v714h-168v-714z" />
    <glyph glyph-name="J" unicode="J" 
d="M280 215q0 -59 -10 -88t-43 -29q-19 0 -30.5 8t-16.5 21.5t-6.5 29.5t-1.5 39v31h-156v-44q0 -97 51.5 -147t161.5 -50q61 0 103.5 16.5t67.5 47t36.5 72t11.5 93.5v499h-168v-499z" />
    <glyph glyph-name="K" unicode="K" horiz-adv-x="574" 
d="M52 0h168v200l45 69l129 -269h189l-210 406l187 308h-181l-157 -282h-2v282h-168v-714z" />
    <glyph glyph-name="L" unicode="L" horiz-adv-x="463" 
d="M52 0h411v136h-243v578h-168v-714z" />
    <glyph glyph-name="M" unicode="M" horiz-adv-x="778" 
d="M57 0h150v556h2l115 -556h130l109 556h2v-556h156v714h-243l-85 -469h-2l-88 469h-246v-714z" />
    <glyph glyph-name="N" unicode="N" horiz-adv-x="593" 
d="M52 0h150v492h2l147 -492h190v714h-156v-464h-2l-138 464h-193v-714z" />
    <glyph glyph-name="O" unicode="O" horiz-adv-x="574" 
d="M210 357q0 80 3 127.5t10.5 76.5t22.5 42t40 13q26 0 41 -13t23 -42.5t11 -76.5t3 -127t-3 -127t-11 -76.5t-23 -42.5t-41 -13q-25 0 -40 13t-22.5 42t-10.5 76.5t-3 127.5zM538 357q0 90 -7 151.5t-31 112t-75.5 79t-137.5 28.5q-81 0 -131 -25t-76 -73t-35 -113
t-9 -160t9 -160.5t35 -113t76 -72.5t131 -25q86 0 137.5 28.5t75.5 79t31 112t7 151.5z" />
    <glyph glyph-name="P" unicode="P" horiz-adv-x="556" 
d="M52 0h168v279h74q120 0 174.5 58t54.5 160q0 38 -9 75t-32 69.5t-65 52.5t-105 20h-260v-714zM220 590h43q48 0 67 -25.5t19 -71.5q0 -41 -18.5 -65.5t-64.5 -24.5h-46v187z" />
    <glyph glyph-name="Q" unicode="Q" horiz-adv-x="574" 
d="M210 357q0 80 3 127.5t10.5 76.5t22.5 42t40 13q26 0 41 -13t23 -42.5t11 -76.5t3 -127t-3 -127t-11 -76.5t-23 -42.5t-41 -13q-25 0 -40 13t-22.5 42t-10.5 76.5t-3 127.5zM468 -104l98 90l-81 83q33 48 43 116t10 172q0 90 -7 151.5t-31 112t-75.5 79t-137.5 28.5
q-81 0 -131 -25t-76 -73t-35 -113t-9 -160t9 -160.5t35 -113t76 -72.5t131 -25q26 0 48 3q26 3 38 7z" />
    <glyph glyph-name="R" unicode="R" horiz-adv-x="574" 
d="M220 596h51q48 0 67.5 -23t19.5 -67q0 -38 -20 -65.5t-66 -27.5h-52v183zM52 0h168v295h64q41 0 55.5 -29.5t14.5 -120.5q0 -61 4 -94t14 -51h181v9q-10 4 -15.5 11t-8.5 22.5t-5 44.5t-3 87q-1 43 -4.5 71t-14.5 50t-34 37t-62 20v2q60 15 90 56.5t30 117.5
q0 38 -10.5 71.5t-33 59t-59.5 40.5t-89 15h-282v-714z" />
    <glyph glyph-name="S" unicode="S" horiz-adv-x="537" 
d="M29 218v-46q0 -54 19 -90.5t51.5 -57.5t74 -29.5t90.5 -8.5q119 0 181.5 54.5t62.5 172.5q0 51 -15.5 86.5t-41.5 59t-54 37t-72 30.5q-64 25 -94 47.5t-30 65.5q0 77 67 77q36 0 51 -25q14 -22 14 -75h162v17q0 43 -12.5 78t-39.5 61.5t-71 41t-105 14.5q-63 0 -108 -16
t-73 -45t-40.5 -66.5t-12.5 -82.5q0 -54 16 -91.5t42 -61.5t54 -38t73 -31q63 -24 92.5 -46t29.5 -67q0 -36 -17.5 -60.5t-58.5 -24.5t-57 25t-16 70v25h-162z" />
    <glyph glyph-name="T" unicode="T" horiz-adv-x="480" 
d="M156 0h168v578h150v136h-468v-136h150v-578z" />
    <glyph glyph-name="U" unicode="U" horiz-adv-x="556" 
d="M513 714h-168v-527q0 -89 -67 -89t-67 89v527h-168v-478q0 -57 10 -101.5t35.5 -78t72 -52t117.5 -18.5t117.5 18.5t72 52t35.5 78t10 101.5v478z" />
    <glyph glyph-name="V" unicode="V" horiz-adv-x="537" 
d="M159 0h214l162 714h-180l-86 -552h-2l-85 552h-180z" />
    <glyph glyph-name="W" unicode="W" horiz-adv-x="778" 
d="M132 0h186l69 507h2l73 -507h186l124 714h-162l-60 -508h-2l-80 508h-156l-74 -508h-2l-62 508h-168z" />
    <glyph glyph-name="X" unicode="X" horiz-adv-x="556" 
d="M3 0h186l87 235l85 -235h192l-177 363l163 351h-186l-72 -219h-2l-73 219h-186l158 -351z" />
    <glyph glyph-name="Y" unicode="Y" horiz-adv-x="536" 
d="M184 0h168v281l181 433h-180l-82 -265h-2l-80 265h-186l181 -433v-281z" />
    <glyph glyph-name="Z" unicode="Z" horiz-adv-x="481" 
d="M23 0h435v136h-245l245 460v118h-416v-136h223l-242 -454v-124z" />
    <glyph glyph-name="bracketleft" unicode="[" horiz-adv-x="333" 
d="M84 -184h253v112h-103v674h103v112h-253v-898z" />
    <glyph glyph-name="backslash" unicode="\" horiz-adv-x="352" 
d="M222 -14h136l-228 742h-136z" />
    <glyph glyph-name="bracketright" unicode="]" horiz-adv-x="333" 
d="M-4 -184h253v898h-253v-112h103v-674h-103v-112z" />
    <glyph glyph-name="asciicircum" unicode="^" horiz-adv-x="600" 
d="M56 309h124l120 249l120 -249h124l-187 385h-114z" />
    <glyph glyph-name="underscore" unicode="_" 
d="M0 -125h500v50h-500v-50z" />
    <glyph glyph-name="grave" unicode="`" horiz-adv-x="260" 
d="M85 598h106l-50 142h-156z" />
    <glyph glyph-name="a" unicode="a" 
d="M186 375q1 38 14 56t45 18q26 0 38.5 -14t12.5 -40q0 -30 -10.5 -41t-47.5 -21q-7 -2 -36 -9q-36 -8 -62.5 -16t-46.5 -19q-30 -17 -48 -54t-18 -84q0 -85 37 -125t107 -40q41 0 76 20.5t51 55.5h2q2 -39 9 -62h156q-12 16 -15.5 44.5t-3.5 72.5v278q0 85 -45.5 122.5
t-146.5 37.5q-51 0 -87 -8t-64 -27q-29 -20 -44.5 -55.5t-16.5 -89.5h144zM183 167q0 41 25 60q7 5 28 14q33 12 60 26v-31q-1 -34 -1 -64q0 -38 -18.5 -56t-46.5 -18q-22 0 -34.5 18.5t-12.5 50.5z" />
    <glyph glyph-name="b" unicode="b" horiz-adv-x="519" 
d="M45 0h156v66h2q11 -33 39.5 -56.5t77.5 -23.5q84 0 125.5 66t41.5 214q0 69 -6.5 120t-23 89.5t-48 59t-79.5 20.5q-39 0 -70.5 -16.5t-50.5 -56.5h-2v232h-162v-714zM204 267q0 87 11 128.5t48 41.5q40 0 51 -38t11 -125q0 -40 -1.5 -68t-7.5 -51t-19 -37t-35 -14
q-34 0 -46 39t-12 124z" />
    <glyph glyph-name="c" unicode="c" horiz-adv-x="481" 
d="M461 337q0 52 -10 91t-34 67.5t-66 44t-104 15.5q-64 0 -107 -19.5t-68 -54.5t-35 -82.5t-10 -108.5q0 -72 6.5 -123t28.5 -92.5t67 -65t118 -23.5q111 0 162 55t52 179h-150q-1 -74 -13.5 -101t-47.5 -27q-38 0 -49.5 39t-11.5 139q0 94 11.5 136.5t49.5 42.5
q32 0 46.5 -26.5t14.5 -85.5h150z" />
    <glyph glyph-name="d" unicode="d" horiz-adv-x="519" 
d="M318 0h156v714h-162v-232h-2q-19 40 -50.5 56.5t-70.5 16.5q-48 0 -79.5 -21t-48 -59t-23 -89t-6.5 -120q0 -148 41.5 -214t125.5 -66q49 0 77.5 23.5t39.5 56.5h2v-66zM315 267q0 -85 -12 -124t-46 -39q-22 0 -35 13.5t-19 37t-7.5 51.5t-1.5 68q0 87 11 125t51 38
q37 0 48 -41.5t11 -128.5z" />
    <glyph glyph-name="e" unicode="e" horiz-adv-x="481" 
d="M462 244q0 82 -6 134.5t-27 92.5t-65 62t-117 22q-64 0 -107 -19.5t-68 -54.5t-35 -82.5t-10 -108.5q0 -72 6.5 -123t28.5 -92.5t67 -65t118 -23.5q101 0 154.5 49.5t55.5 149.5h-150q-3 -53 -15.5 -76t-43.5 -23q-34 0 -46.5 29.5t-12.5 95.5v33h273zM189 338
q0 61 12.5 89t49.5 28q32 0 43.5 -28t11.5 -89h-117z" />
    <glyph glyph-name="f" unicode="f" horiz-adv-x="296" 
d="M66 0h162v429h75v112h-75v34q0 24 10 32.5t42 8.5h23v109q-31 3 -72 3q-96 0 -130.5 -32t-34.5 -110v-45h-67v-112h67v-429z" />
    <glyph glyph-name="g" unicode="g" horiz-adv-x="519" 
d="M324 468h-2q-16 41 -46.5 64t-81.5 23q-50 0 -82 -24t-48.5 -63.5t-22 -86t-5.5 -103.5q0 -59 7.5 -106.5t25 -83t47 -55.5t72.5 -20q46 0 79.5 18.5t48.5 61.5h2v-33q0 -80 -13 -109t-52 -29q-24 0 -40 11q-12 10 -17 33h-150q0 -32 10 -59t33.5 -47.5t63 -32
t96.5 -11.5q63 0 106.5 14t69.5 41t37.5 63.5t11.5 84.5v522h-150v-73zM198 280q0 76 12 113.5t49 37.5q34 0 46.5 -34t12.5 -112q0 -90 -13.5 -122t-47.5 -32q-33 0 -46 32.5t-13 116.5z" />
    <glyph glyph-name="h" unicode="h" horiz-adv-x="519" 
d="M45 0h162v354q0 38 16.5 57.5t41.5 19.5q47 0 47 -62v-369h162v405q0 77 -35.5 113.5t-105.5 36.5q-43 0 -74 -17t-50 -56h-2v232h-162v-714z" />
    <glyph glyph-name="i" unicode="i" horiz-adv-x="260" 
d="M49 0h162v541h-162v-541zM49 598h162v124h-162v-124z" />
    <glyph glyph-name="j" unicode="j" horiz-adv-x="260" 
d="M49 6q0 -40 -8 -54t-41 -16q-14 0 -23 1v-111l18 -1q33 -1 51 -1q99 0 132 37t33 126v554h-162v-535zM49 598h162v124h-162v-124z" />
    <glyph glyph-name="k" unicode="k" horiz-adv-x="519" 
d="M45 0h162v147l42 57l101 -204h177l-174 323l155 218h-178l-121 -194h-2v367h-162v-714z" />
    <glyph glyph-name="l" unicode="l" horiz-adv-x="260" 
d="M49 0h162v714h-162v-714z" />
    <glyph glyph-name="m" unicode="m" horiz-adv-x="796" 
d="M50 0h162v354q0 38 16.5 57.5t41.5 19.5q47 0 47 -62v-369h162v354q0 38 16.5 57.5t41.5 19.5q47 0 47 -62v-369h162v405q0 77 -35.5 113.5t-105.5 36.5q-46 0 -76 -18.5t-58 -64.5q-9 26 -23.5 43t-33 25.5t-37 11.5t-39.5 3q-44 0 -78 -20.5t-52 -57.5h-2v64h-156v-541
z" />
    <glyph glyph-name="n" unicode="n" horiz-adv-x="519" 
d="M45 0h162v354q0 38 16.5 57.5t41.5 19.5q47 0 47 -62v-369h162v405q0 77 -35.5 113.5t-105.5 36.5q-44 0 -78 -20.5t-52 -57.5h-2v64h-156v-541z" />
    <glyph glyph-name="o" unicode="o" 
d="M311 270q0 -103 -11.5 -140.5t-48.5 -37.5q-35 0 -48.5 39.5t-13.5 139.5t13.5 139t48.5 39q37 0 48.5 -37.5t11.5 -141.5zM250 -14q68 0 112 21t68 59t33.5 89t9.5 117q0 68 -8 117.5t-30.5 87t-67.5 58t-117 20.5q-68 0 -112 -21t-68 -59t-33.5 -89t-9.5 -117
q0 -68 8 -117.5t31 -87t67.5 -58t116.5 -20.5z" />
    <glyph glyph-name="p" unicode="p" horiz-adv-x="519" 
d="M45 -176h162v235h2q19 -40 50.5 -56.5t70.5 -16.5q48 0 79.5 21t48 59t23 89t6.5 120q0 148 -41.5 214t-125.5 66q-49 0 -77.5 -23.5t-39.5 -56.5h-2v66h-156v-717zM204 274q0 85 12 124t46 39q22 0 35 -13.5t19 -37t7.5 -51.5t1.5 -68q0 -87 -11 -125t-51 -38
q-37 0 -48 41.5t-11 128.5z" />
    <glyph glyph-name="q" unicode="q" horiz-adv-x="519" 
d="M312 -176h162v717h-156v-66h-2q-11 33 -39.5 56.5t-77.5 23.5q-84 0 -125.5 -66t-41.5 -214q0 -69 6.5 -120t23 -89t48 -59t79.5 -21q39 0 70.5 16.5t50.5 56.5h2v-235zM315 274q0 -87 -11 -128.5t-48 -41.5q-40 0 -51 38t-11 125q0 40 1.5 68.5t7.5 51.5t19 36.5
t35 13.5q34 0 46 -39t12 -124z" />
    <glyph glyph-name="r" unicode="r" horiz-adv-x="370" 
d="M45 0h162v307q0 51 28 74.5t79 23.5q24 0 45 -4v152q-10 2 -26 2q-48 0 -80 -25t-50 -65h-2v76h-156v-541z" />
    <glyph glyph-name="s" unicode="s" horiz-adv-x="463" 
d="M25 172v-24q0 -82 49.5 -122t156.5 -40q99 0 153 47t54 130q0 44 -14.5 75t-38.5 49.5t-49.5 29t-64.5 21.5q-48 15 -70 28t-22 39q0 24 12.5 37t42.5 13q27 0 40 -13t13 -47v-10h144v18q0 31 -9.5 58t-32.5 48.5t-61 33.5t-93 12q-99 0 -152.5 -41.5t-53.5 -121.5
q0 -42 12 -70t35.5 -47.5t56.5 -33.5t93 -34q35 -12 48.5 -28.5t13.5 -37.5q0 -24 -15 -39.5t-43 -15.5q-35 0 -50 25q-9 19 -11 61h-144z" />
    <glyph glyph-name="t" unicode="t" horiz-adv-x="315" 
d="M66 140q0 -48 7 -76.5t23 -43.5t42.5 -20.5t71.5 -5.5q47 0 93 6v108q-14 -2 -23 -2q-29 0 -40.5 11t-11.5 39v273h75v112h-75v159h-162v-159h-67v-112h67v-289z" />
    <glyph glyph-name="u" unicode="u" horiz-adv-x="519" 
d="M474 541h-162v-354q0 -38 -16.5 -57.5t-41.5 -19.5q-47 0 -47 62v369h-162v-405q0 -77 35.5 -113.5t105.5 -36.5q45 0 79 21t51 57h2v-64h156v541z" />
    <glyph glyph-name="v" unicode="v" horiz-adv-x="481" 
d="M144 0h192l134 541h-162l-64 -399h-2l-63 399h-168z" />
    <glyph glyph-name="w" unicode="w" horiz-adv-x="741" 
d="M122 0h186l63 399h2l59 -399h183l117 541h-156l-57 -399h-2l-57 399h-174l-61 -399h-2l-52 399h-162z" />
    <glyph glyph-name="x" unicode="x" horiz-adv-x="481" 
d="M4 0h162l76 175l73 -175h162l-145 280l135 261h-162l-66 -161l-64 161h-162l136 -261z" />
    <glyph glyph-name="y" unicode="y" horiz-adv-x="481" 
d="M163 -4q-6 -33 -24 -46.5t-44 -13.5q-14 0 -40 4v-114q21 -2 70 -2t80.5 7.5t53.5 26.5t37.5 51.5t29.5 86.5l145 545h-162l-63 -379h-2l-66 379h-168z" />
    <glyph glyph-name="z" unicode="z" horiz-adv-x="463" 
d="M31 0h401v124h-215l210 293v124h-387v-124h195l-204 -293v-124z" />
    <glyph glyph-name="braceleft" unicode="{" horiz-adv-x="333" 
d="M91 -49q0 -67 38 -101t105 -34h101v112h-40q-30 0 -42 20t-12 53v145q0 105 -99 118v2q44 6 71.5 36t27.5 75v152q0 34 11.5 53.5t42.5 19.5h40v112h-101q-69 0 -106 -35t-37 -100v-187q0 -36 -28 -59.5t-65 -23.5v-88q39 0 66 -26t27 -64v-180z" />
    <glyph glyph-name="bar" unicode="|" horiz-adv-x="222" 
d="M46 -14h130v742h-130v-742z" />
    <glyph glyph-name="braceright" unicode="}" horiz-adv-x="333" 
d="M92 1q0 -34 -11.5 -53.5t-42.5 -19.5h-40v-112h101q70 0 106.5 35t36.5 100v187q0 36 28 59.5t65 23.5v88q-39 0 -66 26t-27 64v180q0 67 -38 101t-105 34h-101v-112h40q30 0 42 -20t12 -53v-145q0 -105 99 -118v-2q-44 -6 -71.5 -36t-27.5 -75v-152z" />
    <glyph glyph-name="asciitilde" unicode="~" horiz-adv-x="600" 
d="M495 352q-10 -22 -36.5 -45t-53.5 -23q-20 0 -38.5 7t-46.5 22l-10 5q-31 16 -58 25t-60 9q-41 0 -71 -22.5t-52 -63.5l36 -112q10 22 36.5 45t53.5 23q20 0 38.5 -7t46.5 -22l10 -5q32 -16 58.5 -25t59.5 -9q41 0 71 22.5t52 63.5z" />
    <glyph glyph-name="exclamdown" unicode="&#xa1;" horiz-adv-x="334" 
d="M248 64l-20 276h-124l-18 -276v-234h162v234zM244 544h-156v-150h156v150z" />
    <glyph glyph-name="cent" unicode="&#xa2;" horiz-adv-x="520" 
d="M228 -105h78v91q88 10 129 65.5t42 168.5h-150q-1 -74 -13.5 -101t-47.5 -27q-38 0 -49.5 39t-11.5 139q0 94 11.5 136.5t49.5 42.5q32 0 46.5 -26.5t14.5 -85.5h150q0 98 -38 153.5t-133 64.5v80h-78v-80q-54 -4 -90 -25t-57 -56t-29.5 -80.5t-8.5 -103.5
q0 -67 6 -116.5t23 -87.5q20 -44 58 -69.5t98 -30.5v-91z" />
    <glyph glyph-name="sterling" unicode="&#xa3;" horiz-adv-x="520" 
d="M60 -8q32 16 54.5 23t49.5 7q32 0 96 -19q57 -17 82 -17q36 0 77.5 9.5t83.5 36.5l-47 103q-22 -15 -50.5 -26t-53.5 -11q-17 0 -29 3t-27 9t-26 8.5t-26 2.5q-28 0 -50 -11l-2 2q53 41 78 76.5t25 75.5q0 6 -1.5 14.5t-3.5 13.5h138v94h-172q-32 70 -40 94q-6 15 -8 26
t-2 23q0 39 20 56t51 17q65 0 65 -86v-14h150q0 49 -12 86.5t-39 64.5t-72 41t-110 14q-99 0 -157 -49.5t-58 -129.5q0 -66 44 -143h-67v-94h107q5 -13 5 -36q0 -41 -28 -85.5t-88 -84.5z" />
    <glyph glyph-name="currency" unicode="&#xa4;" horiz-adv-x="520" 
d="M138 347q0 54 33.5 91t88.5 37t88.5 -37t33.5 -91t-33.5 -91t-88.5 -37t-88.5 37t-33.5 91zM2 155l66 -66l55 55q60 -43 137 -43t138 42l54 -54l66 66l-55 55q43 60 43 137q0 76 -42 138l54 54l-66 66l-54 -54q-63 42 -138 42q-76 0 -138 -42l-54 54l-66 -66l54 -54
q-42 -63 -42 -138q0 -77 42 -138z" />
    <glyph glyph-name="yen" unicode="&#xa5;" horiz-adv-x="520" 
d="M182 0h156v132h145v94h-145v55l8 19h137v94h-98l129 300h-165l-86 -257h-2l-84 257h-171l129 -300h-98v-94h137l8 -19v-55h-145v-94h145v-132z" />
    <glyph glyph-name="brokenbar" unicode="&#xa6;" horiz-adv-x="222" 
d="M46 -14h130v271h-130v-271zM46 457h130v271h-130v-271z" />
    <glyph glyph-name="section" unicode="&#xa7;" horiz-adv-x="519" 
d="M43 41v-25q0 -35 12 -65.5t37 -53.5t66.5 -36t97.5 -13q47 0 86 8.5t68.5 28t46 53.5t16.5 84q0 39 -15.5 71.5t-40.5 56.5q38 31 57 65.5t19 82.5q0 45 -16 77.5t-42 54t-54 35t-70 29.5q-53 20 -78 36t-25 43q0 20 13.5 34.5t42.5 14.5q26 0 41.5 -12.5t15.5 -40.5v-15
h150v8q0 80 -48 123t-164 43q-43 0 -81 -9.5t-66 -30t-44 -53t-16 -77.5q0 -38 13.5 -66t45.5 -49q-36 -20 -60.5 -59t-24.5 -85q0 -42 15 -73t40.5 -52t53 -34.5t67.5 -29.5q57 -23 83 -41t26 -48q0 -67 -54 -67q-27 0 -42.5 19t-15.5 52v16h-156zM363 275q0 -19 -12 -37.5
t-28 -31.5q-30 20 -86 41q-43 18 -62 32t-19 42q0 17 13.5 36t37.5 31q15 -10 58 -27q48 -20 73 -37.5t25 -48.5z" />
    <glyph glyph-name="dieresis" unicode="&#xa8;" horiz-adv-x="260" 
d="M-20 604h124v130h-124v-130zM156 604h124v130h-124v-130z" />
    <glyph glyph-name="copyright" unicode="&#xa9;" horiz-adv-x="800" 
d="M495 294q-4 -29 -29 -47t-60 -18q-45 0 -74.5 38t-29.5 90q0 55 28.5 91.5t76.5 36.5q35 0 58 -17t31 -45h98q-10 74 -61 115t-121 41q-98 0 -154 -62t-56 -160q0 -96 57.5 -159t155.5 -63q68 0 120.5 42.5t63.5 116.5h-104zM135 357q0 57 20.5 107t57 86.5t85 57
t102.5 20.5t102 -20.5t85 -57.5t57.5 -86.5t20.5 -106.5t-20.5 -106.5t-57.5 -86.5t-85 -57.5t-102 -20.5t-102 20.5t-85 57.5t-57.5 86.5t-20.5 106.5zM29 357q0 -76 28.5 -143.5t80 -119t119 -80t143.5 -28.5t143.5 28.5t119 80t80 119t28.5 143.5t-28.5 143.5t-80 119
t-119 80t-143.5 28.5t-143.5 -28.5t-119 -80t-80 -119t-28.5 -143.5z" />
    <glyph glyph-name="ordfeminine" unicode="&#xaa;" horiz-adv-x="325" 
d="M313 374q-8 9 -10 26.5t-2 43.5v168q0 51 -31.5 73.5t-105.5 22.5q-42 0 -67 -4.5t-43 -16.5q-39 -25 -40 -91h112q1 19 8.5 29.5t25.5 10.5q29 0 29 -28q0 -18 -6 -24.5t-27 -12.5q-6 -2 -31 -7q-23 -5 -39.5 -9.5t-28.5 -10.5q-21 -10 -33 -32t-12 -50q0 -49 24.5 -72
t72.5 -23q30 0 51 12q22 12 26 32h2q0 -20 10 -37h115zM189 477q0 -18 -11 -28t-25 -10q-13 0 -21 10t-8 25q0 20 14 32q5 4 19 10q18 7 32 15v-54z" />
    <glyph glyph-name="guillemotleft" unicode="&#xab;" horiz-adv-x="444" 
d="M46 192l156 -110v150l-83 57l83 57v150l-156 -110v-194zM242 192l156 -110v150l-83 57l83 57v150l-156 -110v-194z" />
    <glyph glyph-name="logicalnot" unicode="&#xac;" horiz-adv-x="600" 
d="M423 98h130v329h-506v-130h376v-199z" />
    <glyph glyph-name="minus" unicode="&#xad;" horiz-adv-x="600" 
d="M47 188h506v130h-506v-130z" />
    <glyph glyph-name="minus" unicode="&#x2212;" horiz-adv-x="600" 
d="M47 188h506v130h-506v-130z" />
    <glyph glyph-name="registered" unicode="&#xae;" horiz-adv-x="800" 
d="M242 150h94v164h35l93 -164h104l-103 168q43 6 71 36t28 80q0 63 -39.5 96t-119.5 33h-163v-413zM334 491h59q33 0 55 -10.5t22 -41.5q0 -32 -17 -42.5t-51 -10.5h-68v105zM135 357q0 57 20.5 107t57 86.5t85 57t102.5 20.5t102 -20.5t85 -57.5t57.5 -86.5t20.5 -106.5
t-20.5 -106.5t-57.5 -86.5t-85 -57.5t-102 -20.5t-102 20.5t-85 57.5t-57.5 86.5t-20.5 106.5zM29 357q0 -76 28.5 -143.5t80 -119t119 -80t143.5 -28.5t143.5 28.5t119 80t80 119t28.5 143.5t-28.5 143.5t-80 119t-119 80t-143.5 28.5t-143.5 -28.5t-119 -80t-80 -119
t-28.5 -143.5z" />
    <glyph glyph-name="macron" unicode="&#xaf;" horiz-adv-x="260" 
d="M-25 626h310v88h-310v-88z" />
    <glyph glyph-name="degree" unicode="&#xb0;" horiz-adv-x="400" 
d="M126 556q0 31 21.5 52.5t52.5 21.5t52.5 -21.5t21.5 -52.5t-21.5 -52.5t-52.5 -21.5t-52.5 21.5t-21.5 52.5zM48 556q0 -31 11.5 -58.5t33 -49t49 -33t58.5 -11.5t58.5 11.5t49 33t33 49t11.5 58.5t-11.5 58.5t-33 49t-49 33t-58.5 11.5t-58.5 -11.5t-49 -33t-33 -49
t-11.5 -58.5z" />
    <glyph glyph-name="plusminus" unicode="&#xb1;" horiz-adv-x="600" 
d="M235 166h130v105h188v130h-188v105h-130v-105h-188v-130h188v-105zM47 0h506v130h-506v-130z" />
    <glyph glyph-name="twosuperior" unicode="&#xb2;" horiz-adv-x="338" 
d="M129 562q0 13 1 23t4 20.5t11 17.5t21 7q18 0 25.5 -13t7.5 -33q0 -15 -1.5 -24t-9 -21t-24 -28.5t-45.5 -40.5q-107 -88 -110 -190h316v94h-158q8 13 23.5 27t44.5 34q32 22 51 41t28.5 36t12 33.5t2.5 39.5q0 59 -34 91t-124 32q-82 0 -121 -31.5t-39 -95.5v-19h118z
" />
    <glyph glyph-name="threesuperior" unicode="&#xb3;" horiz-adv-x="338" 
d="M131 578q0 26 10.5 39t24.5 13t22 -10.5t8 -27.5q0 -25 -11 -39.5t-36 -14.5h-30v-78h28q32 0 44.5 -12.5t12.5 -45.5q0 -51 -37 -51q-18 0 -26 21q-7 17 -7 43h-130q0 -83 40.5 -112.5t128.5 -29.5q77 0 119 32t42 102q0 42 -19 65t-66 30v2q39 7 58 29.5t19 56.5
q0 62 -35.5 90t-116.5 28q-47 0 -77 -7.5t-49 -23.5q-35 -31 -35 -99h118z" />
    <glyph glyph-name="acute" unicode="&#xb4;" horiz-adv-x="260" 
d="M69 598h106l100 142h-156z" />
    <glyph glyph-name="mu" unicode="&#xb5;" horiz-adv-x="519" 
d="M474 541h-162v-354q0 -38 -16.5 -57.5t-41.5 -19.5q-47 0 -47 62v369h-162v-717h162v166q10 -4 22 -4q26 0 49.5 23.5t37.5 54.5h2v-64h156v541z" />
    <glyph glyph-name="paragraph" unicode="&#xb6;" horiz-adv-x="600" 
d="M193 -138h130v752h66v-752h130v852h-302q-82 0 -131 -51.5t-49 -140.5q0 -42 13.5 -76.5t35.5 -58.5t50 -37t57 -13v-475z" />
    <glyph glyph-name="periodcentered" unicode="&#xb7;" horiz-adv-x="260" 
d="M27 273q0 -43 30 -73t73 -30t73 30t30 73t-30 73t-73 30t-73 -30t-30 -73z" />
    <glyph glyph-name="periodcentered" unicode="&#x2219;" horiz-adv-x="260" 
d="M27 273q0 -43 30 -73t73 -30t73 30t30 73t-30 73t-73 30t-73 -30t-30 -73z" />
    <glyph glyph-name="cedilla" unicode="&#xb8;" horiz-adv-x="260" 
d="M13 -211q2 0 17 -5q25 -7 45 -10.5t48 -3.5q57 0 90.5 27t33.5 70q0 32 -23 54.5t-67 22.5q-12 0 -26 -4l35 60h-59l-52 -93l23 -19h1q16 6 28 6q19 0 32.5 -9t13.5 -22q0 -16 -12.5 -26.5t-37.5 -10.5q-15 0 -32 4t-37 11z" />
    <glyph glyph-name="onesuperior" unicode="&#xb9;" horiz-adv-x="338" 
d="M118 280h130v428h-90q-3 -11 -8.5 -21.5t-17.5 -20.5t-32.5 -16t-49.5 -6h-13v-78h81v-286z" />
    <glyph glyph-name="ordmasculine" unicode="&#xba;" horiz-adv-x="325" 
d="M128 538q0 53 8 75.5t27 22.5q20 0 27 -21.5t7 -77.5q0 -55 -7 -76.5t-27 -21.5q-19 0 -27 22.5t-8 76.5zM315 538q0 41 -5 70.5t-20.5 52t-46.5 35t-80 12.5q-47 0 -77.5 -12.5t-47 -35.5t-22.5 -53t-6 -71t5 -70.5t21 -51.5t46.5 -34.5t80.5 -12.5q47 0 77 12.5
t46.5 35.5t22.5 53t6 70z" />
    <glyph glyph-name="guillemotright" unicode="&#xbb;" horiz-adv-x="444" 
d="M46 82l156 110v194l-156 110v-150l83 -59l-83 -55v-150zM242 82l156 110v194l-156 110v-150l83 -59l-83 -55v-150z" />
    <glyph glyph-name="onequarter" unicode="&#xbc;" horiz-adv-x="778" 
d="M585 168h-69l67 128h2v-128zM426 74h159v-74h124v74h44v94h-44v252h-142l-141 -252v-94zM110 -31h99l400 756h-99zM98 280h130v428h-90q-3 -11 -8.5 -21.5t-17.5 -20.5t-32.5 -16t-49.5 -6h-13v-78h81v-286z" />
    <glyph glyph-name="onehalf" unicode="&#xbd;" horiz-adv-x="778" 
d="M110 -31h99l400 756h-99zM98 280h130v428h-90q-3 -11 -8.5 -21.5t-17.5 -20.5t-32.5 -16t-49.5 -6h-13v-78h81v-286zM553 282q0 13 1 23t4 20.5t11 17.5t21 7q18 0 25.5 -13t7.5 -33q0 -15 -1.5 -24t-9 -21t-24 -28.5t-45.5 -40.5q-107 -88 -110 -190h316v94h-158
q8 13 23.5 27t44.5 34q32 22 51 41t28.5 36t12 33.5t2.5 39.5q0 59 -34 91t-124 32q-82 0 -121 -31.5t-39 -95.5v-19h118z" />
    <glyph glyph-name="threequarters" unicode="&#xbe;" horiz-adv-x="778" 
d="M618 168h-69l67 128h2v-128zM459 74h159v-74h124v74h44v94h-44v252h-142l-141 -252v-94zM150 -31h99l400 756h-99zM125 578q0 26 10.5 39t24.5 13t22 -10.5t8 -27.5q0 -25 -11 -39.5t-36 -14.5h-30v-78h28q32 0 44.5 -12.5t12.5 -45.5q0 -51 -37 -51q-18 0 -26 21
q-7 17 -7 43h-130q0 -83 40.5 -112.5t128.5 -29.5q77 0 119 32t42 102q0 42 -19 65t-66 30v2q39 7 58 29.5t19 56.5q0 62 -35.5 90t-116.5 28q-47 0 -77 -7.5t-49 -23.5q-35 -31 -35 -99h118z" />
    <glyph glyph-name="questiondown" unicode="&#xbf;" 
d="M311 53q0 -70 -14.5 -100.5t-46.5 -30.5q-30 0 -42.5 18t-12.5 55q0 47 16.5 74.5t49.5 59.5q27 27 39 43q18 26 26 57.5t8 78.5v32h-150v-33q0 -28 -14 -50.5t-44 -54.5q-42 -46 -64.5 -87t-22.5 -105q0 -92 55.5 -143t157.5 -51q104 0 156.5 56.5t52.5 160.5v20h-150z
M337 544h-156v-150h156v150z" />
    <glyph glyph-name="Agrave" unicode="&#xc0;" horiz-adv-x="574" 
d="M242 758h106l-50 142h-156zM347 266h-122l59 318h2zM2 0h174l25 136h171l26 -136h174l-178 714h-210z" />
    <glyph glyph-name="Aacute" unicode="&#xc1;" horiz-adv-x="574" 
d="M226 758h106l100 142h-156zM347 266h-122l59 318h2zM2 0h174l25 136h171l26 -136h174l-178 714h-210z" />
    <glyph glyph-name="Acircumflex" unicode="&#xc2;" horiz-adv-x="574" 
d="M132 758h119l36 81l37 -81h118l-71 142h-168zM347 266h-122l59 318h2zM2 0h174l25 136h171l26 -136h174l-178 714h-210z" />
    <glyph glyph-name="Atilde" unicode="&#xc3;" horiz-adv-x="574" 
d="M369 897v-1q-3 -14 -9 -21.5t-22 -7.5q-11 0 -37 10q-12 4 -14 5q-36 15 -68 15q-40 0 -67 -42q-22 -34 -27 -94h77q2 11 9 20.5t20 9.5q11 0 41 -11q23 -9 40.5 -14t36.5 -5q26 0 44.5 12.5t30.5 32.5t17.5 43.5t7.5 47.5h-80zM347 266h-122l59 318h2zM2 0h174l25 136
h171l26 -136h174l-178 714h-210z" />
    <glyph glyph-name="Adieresis" unicode="&#xc4;" horiz-adv-x="574" 
d="M137 764h124v130h-124v-130zM313 764h124v130h-124v-130zM347 266h-122l59 318h2zM2 0h174l25 136h171l26 -136h174l-178 714h-210z" />
    <glyph glyph-name="Aring" unicode="&#xc5;" horiz-adv-x="574" 
d="M166 854q0 -50 35.5 -85.5t85.5 -35.5t85.5 35.5t35.5 85.5t-35.5 85.5t-85.5 35.5t-85.5 -35.5t-35.5 -85.5zM227 854q0 25 17.5 42.5t42.5 17.5t42.5 -17.5t17.5 -42.5t-17.5 -42.5t-42.5 -17.5t-42.5 17.5t-17.5 42.5zM347 266h-122l59 318h2zM2 0h174l25 136h171
l26 -136h174l-178 714h-210z" />
    <glyph glyph-name="AE" unicode="&#xc6;" horiz-adv-x="796" 
d="M9 0h174l44 136h150v-136h390v136h-234v163h210v136h-210v143h225v136h-479zM377 266h-108l100 312h8v-312z" />
    <glyph glyph-name="Ccedilla" unicode="&#xc7;" horiz-adv-x="537" 
d="M200 -93l23 -19h1q16 6 28 6q19 0 32.5 -9t13.5 -22q0 -16 -12.5 -26.5t-37.5 -10.5q-15 0 -32 4t-37 11l-21 -52q2 0 17 -5q25 -7 45 -10.5t48 -3.5q57 0 90.5 27t33.5 70q0 32 -23 54.5t-67 22.5q-12 0 -26 -4l28 48q64 5 106.5 26.5t66 56.5t33 80.5t9.5 103.5v25
h-162q0 -92 -14 -137t-54 -45q-28 0 -43.5 12.5t-23.5 41.5t-10 77.5t-2 135.5q0 78 2.5 123t9.5 73.5t21.5 41.5t39.5 13q40 0 54 -34t14 -116h162v30q0 123 -57.5 177.5t-171.5 54.5q-85 0 -136 -30t-75 -80.5t-30.5 -110t-6.5 -145.5q0 -91 6.5 -153t27 -111t62.5 -78
t112 -34z" />
    <glyph glyph-name="Egrave" unicode="&#xc8;" 
d="M205 758h106l-50 142h-156zM52 0h424v136h-256v163h230v136h-230v143h245v136h-413v-714z" />
    <glyph glyph-name="Eacute" unicode="&#xc9;" 
d="M189 758h106l100 142h-156zM52 0h424v136h-256v163h230v136h-230v143h245v136h-413v-714z" />
    <glyph glyph-name="Ecircumflex" unicode="&#xca;" 
d="M95 758h119l36 81l37 -81h118l-71 142h-168zM52 0h424v136h-256v163h230v136h-230v143h245v136h-413v-714z" />
    <glyph glyph-name="Edieresis" unicode="&#xcb;" 
d="M100 764h124v130h-124v-130zM276 764h124v130h-124v-130zM52 0h424v136h-256v163h230v136h-230v143h245v136h-413v-714z" />
    <glyph glyph-name="Igrave" unicode="&#xcc;" horiz-adv-x="278" 
d="M94 758h106l-50 142h-156zM55 0h168v714h-168v-714z" />
    <glyph glyph-name="Iacute" unicode="&#xcd;" horiz-adv-x="278" 
d="M78 758h106l100 142h-156zM55 0h168v714h-168v-714z" />
    <glyph glyph-name="Icircumflex" unicode="&#xce;" horiz-adv-x="278" 
d="M-16 758h119l36 81l37 -81h118l-71 142h-168zM55 0h168v714h-168v-714z" />
    <glyph glyph-name="Idieresis" unicode="&#xcf;" horiz-adv-x="278" 
d="M-11 764h124v130h-124v-130zM165 764h124v130h-124v-130zM55 0h168v714h-168v-714z" />
    <glyph glyph-name="Eth" unicode="&#xd0;" horiz-adv-x="574" 
d="M220 317h62v112h-62v161h47q34 0 54 -10t30.5 -34.5t14.5 -65.5t4 -111q0 -80 -5.5 -128.5t-17.5 -73.5t-31.5 -34t-50.5 -9h-45v193zM52 0h228q82 0 132.5 22.5t77 68.5t36.5 114.5t12 174.5q-1 93 -16 157t-44 103t-73.5 56.5t-107.5 17.5h-245v-285h-52v-112h52v-317z
" />
    <glyph glyph-name="Ntilde" unicode="&#xd1;" horiz-adv-x="593" 
d="M379 897v-1q-3 -14 -9 -21.5t-22 -7.5q-11 0 -37 10q-12 4 -14 5q-36 15 -68 15q-40 0 -67 -42q-22 -34 -27 -94h77q2 11 9 20.5t20 9.5q11 0 41 -11q23 -9 40.5 -14t36.5 -5q26 0 44.5 12.5t30.5 32.5t17.5 43.5t7.5 47.5h-80zM52 0h150v492h2l147 -492h190v714h-156
v-464h-2l-138 464h-193v-714z" />
    <glyph glyph-name="Ograve" unicode="&#xd2;" horiz-adv-x="574" 
d="M242 758h106l-50 142h-156zM210 357q0 80 3 127.5t10.5 76.5t22.5 42t40 13q26 0 41 -13t23 -42.5t11 -76.5t3 -127t-3 -127t-11 -76.5t-23 -42.5t-41 -13q-25 0 -40 13t-22.5 42t-10.5 76.5t-3 127.5zM538 357q0 90 -7 151.5t-31 112t-75.5 79t-137.5 28.5
q-81 0 -131 -25t-76 -73t-35 -113t-9 -160t9 -160.5t35 -113t76 -72.5t131 -25q86 0 137.5 28.5t75.5 79t31 112t7 151.5z" />
    <glyph glyph-name="Oacute" unicode="&#xd3;" horiz-adv-x="574" 
d="M226 758h106l100 142h-156zM210 357q0 80 3 127.5t10.5 76.5t22.5 42t40 13q26 0 41 -13t23 -42.5t11 -76.5t3 -127t-3 -127t-11 -76.5t-23 -42.5t-41 -13q-25 0 -40 13t-22.5 42t-10.5 76.5t-3 127.5zM538 357q0 90 -7 151.5t-31 112t-75.5 79t-137.5 28.5
q-81 0 -131 -25t-76 -73t-35 -113t-9 -160t9 -160.5t35 -113t76 -72.5t131 -25q86 0 137.5 28.5t75.5 79t31 112t7 151.5z" />
    <glyph glyph-name="Ocircumflex" unicode="&#xd4;" horiz-adv-x="574" 
d="M132 758h119l36 81l37 -81h118l-71 142h-168zM210 357q0 80 3 127.5t10.5 76.5t22.5 42t40 13q26 0 41 -13t23 -42.5t11 -76.5t3 -127t-3 -127t-11 -76.5t-23 -42.5t-41 -13q-25 0 -40 13t-22.5 42t-10.5 76.5t-3 127.5zM538 357q0 90 -7 151.5t-31 112t-75.5 79
t-137.5 28.5q-81 0 -131 -25t-76 -73t-35 -113t-9 -160t9 -160.5t35 -113t76 -72.5t131 -25q86 0 137.5 28.5t75.5 79t31 112t7 151.5z" />
    <glyph glyph-name="Otilde" unicode="&#xd5;" horiz-adv-x="574" 
d="M369 897v-1q-3 -14 -9 -21.5t-22 -7.5q-11 0 -37 10q-12 4 -14 5q-36 15 -68 15q-40 0 -67 -42q-22 -34 -27 -94h77q2 11 9 20.5t20 9.5q11 0 41 -11q23 -9 40.5 -14t36.5 -5q26 0 44.5 12.5t30.5 32.5t17.5 43.5t7.5 47.5h-80zM210 357q0 80 3 127.5t10.5 76.5t22.5 42
t40 13q26 0 41 -13t23 -42.5t11 -76.5t3 -127t-3 -127t-11 -76.5t-23 -42.5t-41 -13q-25 0 -40 13t-22.5 42t-10.5 76.5t-3 127.5zM538 357q0 90 -7 151.5t-31 112t-75.5 79t-137.5 28.5q-81 0 -131 -25t-76 -73t-35 -113t-9 -160t9 -160.5t35 -113t76 -72.5t131 -25
q86 0 137.5 28.5t75.5 79t31 112t7 151.5z" />
    <glyph glyph-name="Odieresis" unicode="&#xd6;" horiz-adv-x="574" 
d="M137 764h124v130h-124v-130zM313 764h124v130h-124v-130zM210 357q0 80 3 127.5t10.5 76.5t22.5 42t40 13q26 0 41 -13t23 -42.5t11 -76.5t3 -127t-3 -127t-11 -76.5t-23 -42.5t-41 -13q-25 0 -40 13t-22.5 42t-10.5 76.5t-3 127.5zM538 357q0 90 -7 151.5t-31 112
t-75.5 79t-137.5 28.5q-81 0 -131 -25t-76 -73t-35 -113t-9 -160t9 -160.5t35 -113t76 -72.5t131 -25q86 0 137.5 28.5t75.5 79t31 112t7 151.5z" />
    <glyph glyph-name="multiply" unicode="&#xd7;" horiz-adv-x="600" 
d="M57 100l90 -90l153 154l153 -154l90 90l-154 153l154 153l-90 90l-153 -154l-153 154l-90 -90l154 -153z" />
    <glyph glyph-name="Oslash" unicode="&#xd8;" horiz-adv-x="574" 
d="M361 438h2q1 -19 1 -81q0 -80 -3 -127t-11 -76.5t-23 -42.5t-41 -13q-40 0 -56 38zM79 -29l66 -29l28 63q42 -19 114 -19q86 0 137.5 28.5t75.5 79t31 112t7 151.5q0 60 -2 102t-9 78q-17 88 -64 133l32 73l-66 29l-28 -63q-45 19 -114 19q-81 0 -131 -25t-76 -73
t-35 -113t-9 -160q0 -119 15.5 -194.5t59.5 -118.5zM213 275h-2q-1 21 -1 82q0 80 3 127.5t10.5 76.5t22.5 42t40 13q41 0 58 -39z" />
    <glyph glyph-name="Ugrave" unicode="&#xd9;" horiz-adv-x="556" 
d="M233 758h106l-50 142h-156zM513 714h-168v-527q0 -89 -67 -89t-67 89v527h-168v-478q0 -57 10 -101.5t35.5 -78t72 -52t117.5 -18.5t117.5 18.5t72 52t35.5 78t10 101.5v478z" />
    <glyph glyph-name="Uacute" unicode="&#xda;" horiz-adv-x="556" 
d="M217 758h106l100 142h-156zM513 714h-168v-527q0 -89 -67 -89t-67 89v527h-168v-478q0 -57 10 -101.5t35.5 -78t72 -52t117.5 -18.5t117.5 18.5t72 52t35.5 78t10 101.5v478z" />
    <glyph glyph-name="Ucircumflex" unicode="&#xdb;" horiz-adv-x="556" 
d="M123 758h119l36 81l37 -81h118l-71 142h-168zM513 714h-168v-527q0 -89 -67 -89t-67 89v527h-168v-478q0 -57 10 -101.5t35.5 -78t72 -52t117.5 -18.5t117.5 18.5t72 52t35.5 78t10 101.5v478z" />
    <glyph glyph-name="Udieresis" unicode="&#xdc;" horiz-adv-x="556" 
d="M128 764h124v130h-124v-130zM304 764h124v130h-124v-130zM513 714h-168v-527q0 -89 -67 -89t-67 89v527h-168v-478q0 -57 10 -101.5t35.5 -78t72 -52t117.5 -18.5t117.5 18.5t72 52t35.5 78t10 101.5v478z" />
    <glyph glyph-name="Yacute" unicode="&#xdd;" horiz-adv-x="536" 
d="M207 758h106l100 142h-156zM184 0h168v281l181 433h-180l-82 -265h-2l-80 265h-186l181 -433v-281z" />
    <glyph glyph-name="Thorn" unicode="&#xde;" horiz-adv-x="556" 
d="M52 0h168v151h74q120 0 174.5 58t54.5 160q0 38 -9 75t-32 69.5t-65 52.5t-105 20h-92v128h-168v-714zM220 462h43q48 0 67 -25.5t19 -71.5q0 -41 -18.5 -65.5t-64.5 -24.5h-46v187z" />
    <glyph glyph-name="germandbls" unicode="&#xdf;" horiz-adv-x="537" 
d="M49 0h162v536q0 43 13 64.5t42 21.5q28 0 43 -19t15 -64q0 -38 -12 -61t-44 -23h-18v-112h16q41 0 58 -24.5t17 -88.5q0 -67 -15 -95.5t-52 -28.5q-11 0 -25 2v-108q8 -2 25 -4t34 -2q49 0 84.5 10.5t60 35.5t37.5 70.5t13 114.5q0 89 -30.5 131.5t-80.5 46.5v2
q49 14 71.5 50t22.5 94q0 86 -48 132.5t-161 46.5q-125 0 -176.5 -51.5t-51.5 -175.5v-501z" />
    <glyph glyph-name="agrave" unicode="&#xe0;" 
d="M205 598h106l-50 142h-156zM186 375q1 38 14 56t45 18q26 0 38.5 -14t12.5 -40q0 -30 -10.5 -41t-47.5 -21q-7 -2 -36 -9q-36 -8 -62.5 -16t-46.5 -19q-30 -17 -48 -54t-18 -84q0 -85 37 -125t107 -40q41 0 76 20.5t51 55.5h2q2 -39 9 -62h156q-12 16 -15.5 44.5
t-3.5 72.5v278q0 85 -45.5 122.5t-146.5 37.5q-51 0 -87 -8t-64 -27q-29 -20 -44.5 -55.5t-16.5 -89.5h144zM183 167q0 41 25 60q7 5 28 14q33 12 60 26v-31q-1 -34 -1 -64q0 -38 -18.5 -56t-46.5 -18q-22 0 -34.5 18.5t-12.5 50.5z" />
    <glyph glyph-name="aacute" unicode="&#xe1;" 
d="M189 598h106l100 142h-156zM186 375q1 38 14 56t45 18q26 0 38.5 -14t12.5 -40q0 -30 -10.5 -41t-47.5 -21q-7 -2 -36 -9q-36 -8 -62.5 -16t-46.5 -19q-30 -17 -48 -54t-18 -84q0 -85 37 -125t107 -40q41 0 76 20.5t51 55.5h2q2 -39 9 -62h156q-12 16 -15.5 44.5
t-3.5 72.5v278q0 85 -45.5 122.5t-146.5 37.5q-51 0 -87 -8t-64 -27q-29 -20 -44.5 -55.5t-16.5 -89.5h144zM183 167q0 41 25 60q7 5 28 14q33 12 60 26v-31q-1 -34 -1 -64q0 -38 -18.5 -56t-46.5 -18q-22 0 -34.5 18.5t-12.5 50.5z" />
    <glyph glyph-name="acircumflex" unicode="&#xe2;" 
d="M95 598h119l36 81l37 -81h118l-71 142h-168zM186 375q1 38 14 56t45 18q26 0 38.5 -14t12.5 -40q0 -30 -10.5 -41t-47.5 -21q-7 -2 -36 -9q-36 -8 -62.5 -16t-46.5 -19q-30 -17 -48 -54t-18 -84q0 -85 37 -125t107 -40q41 0 76 20.5t51 55.5h2q2 -39 9 -62h156
q-12 16 -15.5 44.5t-3.5 72.5v278q0 85 -45.5 122.5t-146.5 37.5q-51 0 -87 -8t-64 -27q-29 -20 -44.5 -55.5t-16.5 -89.5h144zM183 167q0 41 25 60q7 5 28 14q33 12 60 26v-31q-1 -34 -1 -64q0 -38 -18.5 -56t-46.5 -18q-22 0 -34.5 18.5t-12.5 50.5z" />
    <glyph glyph-name="atilde" unicode="&#xe3;" 
d="M332 737v-1q-3 -14 -9 -21.5t-22 -7.5q-11 0 -37 10q-12 4 -14 5q-36 15 -68 15q-40 0 -67 -42q-22 -34 -27 -94h77q2 11 9 20.5t20 9.5q11 0 41 -11q23 -9 40.5 -14t36.5 -5q26 0 44.5 12.5t30.5 32.5t17.5 43.5t7.5 47.5h-80zM186 375q1 38 14 56t45 18q26 0 38.5 -14
t12.5 -40q0 -30 -10.5 -41t-47.5 -21q-7 -2 -36 -9q-36 -8 -62.5 -16t-46.5 -19q-30 -17 -48 -54t-18 -84q0 -85 37 -125t107 -40q41 0 76 20.5t51 55.5h2q2 -39 9 -62h156q-12 16 -15.5 44.5t-3.5 72.5v278q0 85 -45.5 122.5t-146.5 37.5q-51 0 -87 -8t-64 -27
q-29 -20 -44.5 -55.5t-16.5 -89.5h144zM183 167q0 41 25 60q7 5 28 14q33 12 60 26v-31q-1 -34 -1 -64q0 -38 -18.5 -56t-46.5 -18q-22 0 -34.5 18.5t-12.5 50.5z" />
    <glyph glyph-name="adieresis" unicode="&#xe4;" 
d="M100 604h124v130h-124v-130zM276 604h124v130h-124v-130zM186 375q1 38 14 56t45 18q26 0 38.5 -14t12.5 -40q0 -30 -10.5 -41t-47.5 -21q-7 -2 -36 -9q-36 -8 -62.5 -16t-46.5 -19q-30 -17 -48 -54t-18 -84q0 -85 37 -125t107 -40q41 0 76 20.5t51 55.5h2q2 -39 9 -62
h156q-12 16 -15.5 44.5t-3.5 72.5v278q0 85 -45.5 122.5t-146.5 37.5q-51 0 -87 -8t-64 -27q-29 -20 -44.5 -55.5t-16.5 -89.5h144zM183 167q0 41 25 60q7 5 28 14q33 12 60 26v-31q-1 -34 -1 -64q0 -38 -18.5 -56t-46.5 -18q-22 0 -34.5 18.5t-12.5 50.5z" />
    <glyph glyph-name="aring" unicode="&#xe5;" 
d="M129 709q0 -50 35.5 -85.5t85.5 -35.5t85.5 35.5t35.5 85.5t-35.5 85.5t-85.5 35.5t-85.5 -35.5t-35.5 -85.5zM190 709q0 25 17.5 42.5t42.5 17.5t42.5 -17.5t17.5 -42.5t-17.5 -42.5t-42.5 -17.5t-42.5 17.5t-17.5 42.5zM186 375q1 38 14 56t45 18q26 0 38.5 -14
t12.5 -40q0 -30 -10.5 -41t-47.5 -21q-7 -2 -36 -9q-36 -8 -62.5 -16t-46.5 -19q-30 -17 -48 -54t-18 -84q0 -85 37 -125t107 -40q41 0 76 20.5t51 55.5h2q2 -39 9 -62h156q-12 16 -15.5 44.5t-3.5 72.5v278q0 85 -45.5 122.5t-146.5 37.5q-51 0 -87 -8t-64 -27
q-29 -20 -44.5 -55.5t-16.5 -89.5h144zM183 167q0 41 25 60q7 5 28 14q33 12 60 26v-31q-1 -34 -1 -64q0 -38 -18.5 -56t-46.5 -18q-22 0 -34.5 18.5t-12.5 50.5z" />
    <glyph glyph-name="ae" unicode="&#xe6;" horiz-adv-x="741" 
d="M186 375q1 38 14 56t45 18q26 0 38.5 -14t12.5 -40q0 -30 -10.5 -41t-47.5 -21q-7 -2 -36 -9q-36 -8 -62.5 -16t-46.5 -19q-30 -17 -48 -54t-18 -84q0 -89 42 -127t117 -38q114 0 149 89q18 -44 56.5 -66.5t112.5 -22.5q101 0 154.5 49.5t55.5 149.5h-150
q-3 -53 -15.5 -76t-43.5 -23q-34 0 -46.5 29.5t-12.5 95.5v33h273v42q0 143 -48.5 206t-143.5 63q-48 0 -84.5 -13.5t-58.5 -47.5q-4 9 -12.5 18.5t-25 19.5t-42 16.5t-61.5 6.5q-89 0 -140 -35q-29 -20 -44.5 -55.5t-16.5 -89.5h144zM183 167q0 41 25 60q7 5 28 14
q33 12 60 26v-31q-1 -34 -1 -64q0 -38 -18.5 -56t-46.5 -18q-22 0 -34.5 18.5t-12.5 50.5zM446 338q0 61 12.5 89t49.5 28q32 0 43.5 -28t11.5 -89h-117z" />
    <glyph glyph-name="ccedilla" unicode="&#xe7;" horiz-adv-x="481" 
d="M172 -93l23 -19h1q16 6 28 6q19 0 32.5 -9t13.5 -22q0 -16 -12.5 -26.5t-37.5 -10.5q-15 0 -32 4t-37 11l-21 -52q2 0 17 -5q25 -7 45 -10.5t48 -3.5q57 0 90.5 27t33.5 70q0 32 -23 54.5t-67 22.5q-12 0 -26 -4l27 48q96 5 140.5 60t45.5 172h-150q-1 -74 -13.5 -101
t-47.5 -27q-38 0 -49.5 39t-11.5 139q0 94 11.5 136.5t49.5 42.5q32 0 46.5 -26.5t14.5 -85.5h150q0 52 -10 91t-34 67.5t-66 44t-104 15.5q-64 0 -107 -19.5t-68 -54.5t-35 -82.5t-10 -108.5q0 -69 6 -117.5t24.5 -89t57.5 -65.5t102 -30z" />
    <glyph glyph-name="egrave" unicode="&#xe8;" horiz-adv-x="481" 
d="M202 598h106l-50 142h-156zM462 244q0 82 -6 134.5t-27 92.5t-65 62t-117 22q-64 0 -107 -19.5t-68 -54.5t-35 -82.5t-10 -108.5q0 -72 6.5 -123t28.5 -92.5t67 -65t118 -23.5q101 0 154.5 49.5t55.5 149.5h-150q-3 -53 -15.5 -76t-43.5 -23q-34 0 -46.5 29.5t-12.5 95.5
v33h273zM189 338q0 61 12.5 89t49.5 28q32 0 43.5 -28t11.5 -89h-117z" />
    <glyph glyph-name="eacute" unicode="&#xe9;" horiz-adv-x="481" 
d="M186 598h106l100 142h-156zM462 244q0 82 -6 134.5t-27 92.5t-65 62t-117 22q-64 0 -107 -19.5t-68 -54.5t-35 -82.5t-10 -108.5q0 -72 6.5 -123t28.5 -92.5t67 -65t118 -23.5q101 0 154.5 49.5t55.5 149.5h-150q-3 -53 -15.5 -76t-43.5 -23q-34 0 -46.5 29.5t-12.5 95.5
v33h273zM189 338q0 61 12.5 89t49.5 28q32 0 43.5 -28t11.5 -89h-117z" />
    <glyph glyph-name="ecircumflex" unicode="&#xea;" horiz-adv-x="481" 
d="M92 598h119l36 81l37 -81h118l-71 142h-168zM462 244q0 82 -6 134.5t-27 92.5t-65 62t-117 22q-64 0 -107 -19.5t-68 -54.5t-35 -82.5t-10 -108.5q0 -72 6.5 -123t28.5 -92.5t67 -65t118 -23.5q101 0 154.5 49.5t55.5 149.5h-150q-3 -53 -15.5 -76t-43.5 -23
q-34 0 -46.5 29.5t-12.5 95.5v33h273zM189 338q0 61 12.5 89t49.5 28q32 0 43.5 -28t11.5 -89h-117z" />
    <glyph glyph-name="edieresis" unicode="&#xeb;" horiz-adv-x="481" 
d="M97 604h124v130h-124v-130zM273 604h124v130h-124v-130zM462 244q0 82 -6 134.5t-27 92.5t-65 62t-117 22q-64 0 -107 -19.5t-68 -54.5t-35 -82.5t-10 -108.5q0 -72 6.5 -123t28.5 -92.5t67 -65t118 -23.5q101 0 154.5 49.5t55.5 149.5h-150q-3 -53 -15.5 -76t-43.5 -23
q-34 0 -46.5 29.5t-12.5 95.5v33h273zM189 338q0 61 12.5 89t49.5 28q32 0 43.5 -28t11.5 -89h-117z" />
    <glyph glyph-name="igrave" unicode="&#xec;" horiz-adv-x="260" 
d="M85 598h106l-50 142h-156zM49 0h162v541h-162v-541z" />
    <glyph glyph-name="iacute" unicode="&#xed;" horiz-adv-x="260" 
d="M69 598h106l100 142h-156zM49 0h162v541h-162v-541z" />
    <glyph glyph-name="icircumflex" unicode="&#xee;" horiz-adv-x="260" 
d="M-25 598h119l36 81l37 -81h118l-71 142h-168zM49 0h162v541h-162v-541z" />
    <glyph glyph-name="idieresis" unicode="&#xef;" horiz-adv-x="260" 
d="M-20 604h124v130h-124v-130zM156 604h124v130h-124v-130zM49 0h162v541h-162v-541z" />
    <glyph glyph-name="eth" unicode="&#xf0;" 
d="M311 256q0 -95 -11.5 -129.5t-48.5 -34.5q-35 0 -48.5 36.5t-13.5 127.5t13.5 127.5t48.5 36.5q37 0 48.5 -34.5t11.5 -129.5zM101 568l80 48q58 -58 97 -110l-2 -2q-19 12 -37 17t-39 5q-53 0 -88 -23.5t-53.5 -63t-25 -85.5t-6.5 -99q0 -65 8 -112t30.5 -82.5t67.5 -55
t117 -19.5q68 0 112 20t68 56t33.5 84.5t9.5 110.5q0 76 -11.5 136t-33.5 109t-54 92.5t-78 90.5l81 47l-54 47l-76 -46q-17 16 -61 57l-7 6l-105 -78q32 -27 58 -53l-81 -49z" />
    <glyph glyph-name="ntilde" unicode="&#xf1;" horiz-adv-x="519" 
d="M342 737v-1q-3 -14 -9 -21.5t-22 -7.5q-11 0 -37 10q-12 4 -14 5q-36 15 -68 15q-40 0 -67 -42q-22 -34 -27 -94h77q2 11 9 20.5t20 9.5q11 0 41 -11q23 -9 40.5 -14t36.5 -5q26 0 44.5 12.5t30.5 32.5t17.5 43.5t7.5 47.5h-80zM45 0h162v354q0 38 16.5 57.5t41.5 19.5
q47 0 47 -62v-369h162v405q0 77 -35.5 113.5t-105.5 36.5q-44 0 -78 -20.5t-52 -57.5h-2v64h-156v-541z" />
    <glyph glyph-name="ograve" unicode="&#xf2;" 
d="M205 598h106l-50 142h-156zM311 270q0 -103 -11.5 -140.5t-48.5 -37.5q-35 0 -48.5 39.5t-13.5 139.5t13.5 139t48.5 39q37 0 48.5 -37.5t11.5 -141.5zM250 -14q68 0 112 21t68 59t33.5 89t9.5 117q0 68 -8 117.5t-30.5 87t-67.5 58t-117 20.5q-68 0 -112 -21t-68 -59
t-33.5 -89t-9.5 -117q0 -68 8 -117.5t31 -87t67.5 -58t116.5 -20.5z" />
    <glyph glyph-name="oacute" unicode="&#xf3;" 
d="M189 598h106l100 142h-156zM311 270q0 -103 -11.5 -140.5t-48.5 -37.5q-35 0 -48.5 39.5t-13.5 139.5t13.5 139t48.5 39q37 0 48.5 -37.5t11.5 -141.5zM250 -14q68 0 112 21t68 59t33.5 89t9.5 117q0 68 -8 117.5t-30.5 87t-67.5 58t-117 20.5q-68 0 -112 -21t-68 -59
t-33.5 -89t-9.5 -117q0 -68 8 -117.5t31 -87t67.5 -58t116.5 -20.5z" />
    <glyph glyph-name="ocircumflex" unicode="&#xf4;" 
d="M95 598h119l36 81l37 -81h118l-71 142h-168zM311 270q0 -103 -11.5 -140.5t-48.5 -37.5q-35 0 -48.5 39.5t-13.5 139.5t13.5 139t48.5 39q37 0 48.5 -37.5t11.5 -141.5zM250 -14q68 0 112 21t68 59t33.5 89t9.5 117q0 68 -8 117.5t-30.5 87t-67.5 58t-117 20.5
q-68 0 -112 -21t-68 -59t-33.5 -89t-9.5 -117q0 -68 8 -117.5t31 -87t67.5 -58t116.5 -20.5z" />
    <glyph glyph-name="otilde" unicode="&#xf5;" 
d="M332 737v-1q-3 -14 -9 -21.5t-22 -7.5q-11 0 -37 10q-12 4 -14 5q-36 15 -68 15q-40 0 -67 -42q-22 -34 -27 -94h77q2 11 9 20.5t20 9.5q11 0 41 -11q23 -9 40.5 -14t36.5 -5q26 0 44.5 12.5t30.5 32.5t17.5 43.5t7.5 47.5h-80zM311 270q0 -103 -11.5 -140.5t-48.5 -37.5
q-35 0 -48.5 39.5t-13.5 139.5t13.5 139t48.5 39q37 0 48.5 -37.5t11.5 -141.5zM250 -14q68 0 112 21t68 59t33.5 89t9.5 117q0 68 -8 117.5t-30.5 87t-67.5 58t-117 20.5q-68 0 -112 -21t-68 -59t-33.5 -89t-9.5 -117q0 -68 8 -117.5t31 -87t67.5 -58t116.5 -20.5z" />
    <glyph glyph-name="odieresis" unicode="&#xf6;" 
d="M100 604h124v130h-124v-130zM276 604h124v130h-124v-130zM311 270q0 -103 -11.5 -140.5t-48.5 -37.5q-35 0 -48.5 39.5t-13.5 139.5t13.5 139t48.5 39q37 0 48.5 -37.5t11.5 -141.5zM250 -14q68 0 112 21t68 59t33.5 89t9.5 117q0 68 -8 117.5t-30.5 87t-67.5 58
t-117 20.5q-68 0 -112 -21t-68 -59t-33.5 -89t-9.5 -117q0 -68 8 -117.5t31 -87t67.5 -58t116.5 -20.5z" />
    <glyph glyph-name="divide" unicode="&#xf7;" horiz-adv-x="600" 
d="M47 188h506v130h-506v-130zM203 41q0 -41 28 -69t69 -28t69 28t28 69t-28 69t-69 28t-69 -28t-28 -69zM203 465q0 -41 28 -69t69 -28t69 28t28 69t-28 69t-69 28t-69 -28t-28 -69z" />
    <glyph glyph-name="oslash" unicode="&#xf8;" 
d="M42 -29l58 -35l39 69q41 -19 111 -19q75 0 121 25.5t67.5 66.5t28 87.5t6.5 104.5q0 83 -11.5 138t-43.5 90l40 72l-58 35l-39 -69q-41 19 -111 19q-75 0 -121 -25t-67.5 -66.5t-28 -88t-6.5 -104.5q0 -83 11.5 -138.5t44.5 -89.5zM309 307h2v-37q0 -93 -11.5 -135.5
t-49.5 -42.5q-33 0 -45 30zM191 233h-2v38q0 93 11.5 135.5t49.5 42.5q33 0 45 -30z" />
    <glyph glyph-name="ugrave" unicode="&#xf9;" horiz-adv-x="519" 
d="M215 598h106l-50 142h-156zM474 541h-162v-354q0 -38 -16.5 -57.5t-41.5 -19.5q-47 0 -47 62v369h-162v-405q0 -77 35.5 -113.5t105.5 -36.5q45 0 79 21t51 57h2v-64h156v541z" />
    <glyph glyph-name="uacute" unicode="&#xfa;" horiz-adv-x="519" 
d="M199 598h106l100 142h-156zM474 541h-162v-354q0 -38 -16.5 -57.5t-41.5 -19.5q-47 0 -47 62v369h-162v-405q0 -77 35.5 -113.5t105.5 -36.5q45 0 79 21t51 57h2v-64h156v541z" />
    <glyph glyph-name="ucircumflex" unicode="&#xfb;" horiz-adv-x="519" 
d="M105 598h119l36 81l37 -81h118l-71 142h-168zM474 541h-162v-354q0 -38 -16.5 -57.5t-41.5 -19.5q-47 0 -47 62v369h-162v-405q0 -77 35.5 -113.5t105.5 -36.5q45 0 79 21t51 57h2v-64h156v541z" />
    <glyph glyph-name="udieresis" unicode="&#xfc;" horiz-adv-x="519" 
d="M110 604h124v130h-124v-130zM286 604h124v130h-124v-130zM474 541h-162v-354q0 -38 -16.5 -57.5t-41.5 -19.5q-47 0 -47 62v369h-162v-405q0 -77 35.5 -113.5t105.5 -36.5q45 0 79 21t51 57h2v-64h156v541z" />
    <glyph glyph-name="yacute" unicode="&#xfd;" horiz-adv-x="481" 
d="M180 598h106l100 142h-156zM163 -4q-6 -33 -24 -46.5t-44 -13.5q-14 0 -40 4v-114q21 -2 70 -2t80.5 7.5t53.5 26.5t37.5 51.5t29.5 86.5l145 545h-162l-63 -379h-2l-66 379h-168z" />
    <glyph glyph-name="thorn" unicode="&#xfe;" horiz-adv-x="519" 
d="M45 -176h162v235h2q19 -40 50.5 -56.5t70.5 -16.5q48 0 79.5 21t48 59t23 89t6.5 120q0 148 -41.5 214t-125.5 66q-45 0 -72.5 -23.5t-38.5 -56.5h-2v239h-162v-890zM204 274q0 85 12 124t46 39q22 0 35 -13.5t19 -37t7.5 -51.5t1.5 -68q0 -87 -11 -125t-51 -38
q-37 0 -48 41.5t-11 128.5z" />
    <glyph glyph-name="ydieresis" unicode="&#xff;" horiz-adv-x="481" 
d="M91 604h124v130h-124v-130zM267 604h124v130h-124v-130zM163 -4q-6 -33 -24 -46.5t-44 -13.5q-14 0 -40 4v-114q21 -2 70 -2t80.5 7.5t53.5 26.5t37.5 51.5t29.5 86.5l145 545h-162l-63 -379h-2l-66 379h-168z" />
    <glyph glyph-name="OE" unicode="&#x152;" horiz-adv-x="778" 
d="M383 0h379v136h-241v163h219v136h-219v143h232v136h-372v-35q-25 25 -58.5 37t-70.5 12q-76 0 -121.5 -34.5t-65.5 -89t-24.5 -111t-4.5 -136.5q0 -90 7 -153.5t29 -112.5t66.5 -77t116.5 -28q38 0 72 13.5t56 37.5v-37zM210 357q0 75 1.5 116t9 74t23.5 51t44 18
q35 0 50 -19t21 -51q4 -21 5 -68.5t1 -120.5t-1 -120t-5 -69q-6 -32 -21 -51t-50 -19q-28 0 -44 18t-23.5 51t-9 74t-1.5 116z" />
    <glyph glyph-name="oe" unicode="&#x153;" horiz-adv-x="741" 
d="M728 244v44q0 62 -9 110t-31 83.5t-60 54.5t-95 19q-49 0 -83.5 -15.5t-60.5 -53.5q-23 35 -58 52t-90 17q-65 0 -107.5 -21.5t-65.5 -60.5t-32 -90t-9 -118q0 -150 48.5 -214.5t152.5 -64.5q55 0 92 15t61 56q17 -33 53 -52t95 -19q94 0 141 49q49 49 53 150h-150
q-3 -53 -15.5 -76t-40.5 -23q-32 0 -44 29.5t-12 95.5v33h267zM189 270q0 94 11.5 136.5t49.5 42.5t49.5 -39.5t11.5 -140.5q0 -93 -11.5 -135t-49.5 -42t-49.5 39t-11.5 139zM461 338q0 60 12 88.5t47 28.5q30 0 41 -28t11 -89h-111z" />
    <glyph glyph-name="Scaron" unicode="&#x160;" horiz-adv-x="537" 
d="M185 758h168l71 142h-118l-37 -81l-36 81h-119zM29 218v-46q0 -54 19 -90.5t51.5 -57.5t74 -29.5t90.5 -8.5q119 0 181.5 54.5t62.5 172.5q0 51 -15.5 86.5t-41.5 59t-54 37t-72 30.5q-64 25 -94 47.5t-30 65.5q0 77 67 77q36 0 51 -25q14 -22 14 -75h162v17
q0 43 -12.5 78t-39.5 61.5t-71 41t-105 14.5q-63 0 -108 -16t-73 -45t-40.5 -66.5t-12.5 -82.5q0 -54 16 -91.5t42 -61.5t54 -38t73 -31q63 -24 92.5 -46t29.5 -67q0 -36 -17.5 -60.5t-58.5 -24.5t-57 25t-16 70v25h-162z" />
    <glyph glyph-name="scaron" unicode="&#x161;" horiz-adv-x="463" 
d="M148 598h168l71 142h-118l-37 -81l-36 81h-119zM25 172v-24q0 -82 49.5 -122t156.5 -40q99 0 153 47t54 130q0 44 -14.5 75t-38.5 49.5t-49.5 29t-64.5 21.5q-48 15 -70 28t-22 39q0 24 12.5 37t42.5 13q27 0 40 -13t13 -47v-10h144v18q0 31 -9.5 58t-32.5 48.5t-61 33.5
t-93 12q-99 0 -152.5 -41.5t-53.5 -121.5q0 -42 12 -70t35.5 -47.5t56.5 -33.5t93 -34q35 -12 48.5 -28.5t13.5 -37.5q0 -24 -15 -39.5t-43 -15.5q-35 0 -50 25q-9 19 -11 61h-144z" />
    <glyph glyph-name="Ydieresis" unicode="&#x178;" horiz-adv-x="536" 
d="M118 764h124v130h-124v-130zM294 764h124v130h-124v-130zM184 0h168v281l181 433h-180l-82 -265h-2l-80 265h-186l181 -433v-281z" />
    <glyph glyph-name="florin" unicode="&#x192;" horiz-adv-x="520" 
d="M-19 -168q15 -3 40 -5.5t50 -2.5q92 0 136.5 44.5t61.5 133.5l63 325h111l19 94h-112l17 87q12 62 29.5 81t58.5 19q9 0 26 -1l6 -1l22 103q-55 5 -85 5q-88 0 -136.5 -39t-63.5 -117l-27 -137h-107l-19 -94h108l-60 -308q-10 -53 -27 -71t-51 -18q-21 0 -39 2z" />
    <glyph glyph-name="circumflex" unicode="&#x2c6;" horiz-adv-x="260" 
d="M-25 598h119l36 81l37 -81h118l-71 142h-168z" />
    <glyph glyph-name="tilde" unicode="&#x2dc;" horiz-adv-x="260" 
d="M212 737v-1q-3 -14 -9 -21.5t-22 -7.5q-11 0 -37 10q-12 4 -14 5q-36 15 -68 15q-40 0 -67 -42q-22 -34 -27 -94h77q2 11 9 20.5t20 9.5q11 0 41 -11q23 -9 40.5 -14t36.5 -5q26 0 44.5 12.5t30.5 32.5t17.5 43.5t7.5 47.5h-80z" />
    <glyph glyph-name="endash" unicode="&#x2013;" 
d="M0 227h500v124h-500v-124z" />
    <glyph glyph-name="emdash" unicode="&#x2014;" horiz-adv-x="1000" 
d="M0 227h1000v124h-1000v-124z" />
    <glyph glyph-name="quoteleft" unicode="&#x2018;" horiz-adv-x="260" 
d="M52 365h156v174h-62q0 50 14.5 73.5t47.5 23.5v78q-49 -3 -80.5 -20t-47.5 -44t-22 -60t-6 -76v-149z" />
    <glyph glyph-name="quoteright" unicode="&#x2019;" horiz-adv-x="260" 
d="M208 714h-156v-174h62q0 -50 -14.5 -73.5t-47.5 -23.5v-78q49 3 80.5 20t47.5 44t22 60t6 76v149z" />
    <glyph glyph-name="quotesinglbase" unicode="&#x201a;" horiz-adv-x="260" 
d="M52 6h62q0 -50 -14.5 -73.5t-47.5 -23.5v-78q49 3 80.5 20t47.5 44t22 60t6 76v149h-156v-174z" />
    <glyph glyph-name="quotedblleft" unicode="&#x201c;" horiz-adv-x="481" 
d="M51 365h156v174h-62q0 50 14.5 73.5t47.5 23.5v78q-49 -3 -80.5 -20t-47.5 -44t-22 -60t-6 -76v-149zM274 365h156v174h-62q0 50 14.5 73.5t47.5 23.5v78q-49 -3 -80.5 -20t-47.5 -44t-22 -60t-6 -76v-149z" />
    <glyph glyph-name="quotedblright" unicode="&#x201d;" horiz-adv-x="481" 
d="M51 540h62q0 -50 -14.5 -73.5t-47.5 -23.5v-78q49 3 80.5 20t47.5 44t22 60t6 76v149h-156v-174zM274 540h62q0 -50 -14.5 -73.5t-47.5 -23.5v-78q49 3 80.5 20t47.5 44t22 60t6 76v149h-156v-174z" />
    <glyph glyph-name="quotedblbase" unicode="&#x201e;" horiz-adv-x="481" 
d="M51 6h62q0 -50 -14.5 -73.5t-47.5 -23.5v-78q49 3 80.5 20t47.5 44t22 60t6 76v149h-156v-174zM274 6h62q0 -50 -14.5 -73.5t-47.5 -23.5v-78q49 3 80.5 20t47.5 44t22 60t6 76v149h-156v-174z" />
    <glyph glyph-name="dagger" unicode="&#x2020;" horiz-adv-x="520" 
d="M179 -138h162v529h167v130h-167v193h-162v-193h-167v-130h167v-529z" />
    <glyph glyph-name="daggerdbl" unicode="&#x2021;" horiz-adv-x="520" 
d="M179 -138h162v192h166v130h-166v207h167v130h-167v193h-162v-193h-167v-130h167v-207h-167v-130h167v-192z" />
    <glyph glyph-name="bullet" unicode="&#x2022;" 
d="M72 357q0 -36 14 -68.5t38.5 -57t57 -38.5t68.5 -14t68.5 14t57.5 38.5t38.5 57t13.5 68.5t-13.5 68.5t-38.5 57.5t-57.5 38.5t-68.5 13.5t-68.5 -13.5t-57 -38.5t-38.5 -57.5t-14 -68.5z" />
    <glyph glyph-name="ellipsis" unicode="&#x2026;" horiz-adv-x="1000" 
d="M89 0h156v180h-156v-180zM422 0h156v180h-156v-180zM755 0h156v180h-156v-180z" />
    <glyph glyph-name="perthousand" unicode="&#x2030;" horiz-adv-x="1111" 
d="M902 178q0 56 8.5 82.5t31.5 26.5t31.5 -19.5t8.5 -84.5q0 -68 -7.5 -91t-32.5 -23q-23 0 -31.5 25t-8.5 84zM175 -14h101l314 722h-101zM129 516q0 56 8.5 82.5t31.5 26.5t31.5 -19.5t8.5 -84.5q0 -68 -7.5 -91t-32.5 -23q-23 0 -31.5 25t-8.5 84zM784 178
q0 -45 5.5 -78.5t21.5 -59t48 -40t84 -14.5q51 0 83 14.5t48 40.5t21 58.5t5 78.5q0 45 -5 78.5t-21 59t-48 40t-84 14.5q-47 0 -78 -13.5t-48.5 -38.5t-24.5 -59.5t-7 -80.5zM11 516q0 -45 5.5 -78.5t21.5 -59t48 -40t84 -14.5q51 0 83 14.5t48 40.5t21 58.5t5 78.5
q0 45 -5 78.5t-21 59t-48 40t-84 14.5q-47 0 -78 -13.5t-48.5 -38.5t-24.5 -59.5t-7 -80.5zM553 178q0 56 8.5 82.5t31.5 26.5t31.5 -19.5t8.5 -84.5q0 -68 -7.5 -91t-32.5 -23q-23 0 -31.5 25t-8.5 84zM435 178q0 -45 5.5 -78.5t21.5 -59t48 -40t84 -14.5q51 0 83 14.5
t48 40.5t21 58.5t5 78.5q0 45 -5 78.5t-21 59t-48 40t-84 14.5q-47 0 -78 -13.5t-48.5 -38.5t-24.5 -59.5t-7 -80.5z" />
    <glyph glyph-name="guilsinglleft" unicode="&#x2039;" horiz-adv-x="260" 
d="M52 192l156 -110v150l-83 57l83 57v150l-156 -110v-194z" />
    <glyph glyph-name="guilsinglright" unicode="&#x203a;" horiz-adv-x="260" 
d="M52 82l156 110v194l-156 110v-150l83 -57l-83 -57v-150z" />
    <glyph glyph-name="trademark" unicode="&#x2122;" horiz-adv-x="990" 
d="M836 302h112v412h-174l-81 -250h-2l-81 250h-174v-412h112v282h2l93 -282h98l93 282h2v-282zM134 302h130v312h104v100h-338v-100h104v-312z" />
    <hkern u1="&#x20;" u2="&#x201c;" k="37" />
    <hkern u1="&#x20;" u2="&#x2018;" k="37" />
    <hkern u1="&#x2c;" u2="&#x201d;" k="74" />
    <hkern u1="&#x2c;" u2="&#x2019;" k="74" />
    <hkern u1="&#x2c;" u2="&#x20;" k="37" />
    <hkern u1="&#x2e;" u2="&#x201d;" k="74" />
    <hkern u1="&#x2e;" u2="&#x2019;" k="74" />
    <hkern u1="&#x2e;" u2="&#x20;" k="37" />
    <hkern u1="A" u2="&#x201d;" k="55" />
    <hkern u1="A" u2="&#x2019;" k="55" />
    <hkern u1="A" u2="y" k="24" />
    <hkern u1="A" u2="w" k="18" />
    <hkern u1="A" u2="v" k="24" />
    <hkern u1="A" u2="Y" k="92" />
    <hkern u1="A" u2="W" k="37" />
    <hkern u1="A" u2="V" k="30" />
    <hkern u1="A" u2="U" k="12" />
    <hkern u1="A" u2="T" k="55" />
    <hkern u1="A" u2="Q" k="18" />
    <hkern u1="A" u2="O" k="18" />
    <hkern u1="A" u2="G" k="18" />
    <hkern u1="A" u2="C" k="18" />
    <hkern u1="D" u2="Y" k="55" />
    <hkern u1="D" u2="V" k="18" />
    <hkern u1="D" u2="A" k="18" />
    <hkern u1="D" u2="&#x2e;" k="24" />
    <hkern u1="D" u2="&#x2c;" k="24" />
    <hkern u1="F" u2="A" k="37" />
    <hkern u1="F" u2="&#x2e;" k="111" />
    <hkern u1="F" u2="&#x2c;" k="111" />
    <hkern u1="G" u2="&#x2e;" k="24" />
    <hkern u1="J" u2="e" k="6" />
    <hkern u1="J" u2="a" k="12" />
    <hkern u1="J" u2="&#x2e;" k="24" />
    <hkern u1="J" u2="&#x2c;" k="24" />
    <hkern u1="K" u2="y" k="30" />
    <hkern u1="K" u2="o" k="12" />
    <hkern u1="K" u2="e" k="12" />
    <hkern u1="K" u2="O" k="18" />
    <hkern u1="L" u2="&#x201d;" k="92" />
    <hkern u1="L" u2="&#x2019;" k="92" />
    <hkern u1="L" u2="y" k="55" />
    <hkern u1="L" u2="Y" k="92" />
    <hkern u1="L" u2="W" k="74" />
    <hkern u1="L" u2="V" k="74" />
    <hkern u1="L" u2="T" k="74" />
    <hkern u1="O" u2="Y" k="55" />
    <hkern u1="O" u2="X" k="24" />
    <hkern u1="O" u2="W" k="12" />
    <hkern u1="O" u2="V" k="12" />
    <hkern u1="O" u2="T" k="18" />
    <hkern u1="O" u2="A" k="18" />
    <hkern u1="O" u2="&#x2e;" k="24" />
    <hkern u1="O" u2="&#x2c;" k="24" />
    <hkern u1="P" u2="o" k="37" />
    <hkern u1="P" u2="e" k="37" />
    <hkern u1="P" u2="a" k="37" />
    <hkern u1="P" u2="A" k="55" />
    <hkern u1="P" u2="&#x2e;" k="160" />
    <hkern u1="P" u2="&#x2c;" k="160" />
    <hkern u1="R" u2="Y" k="30" />
    <hkern u1="R" u2="T" k="18" />
    <hkern u1="T" u2="y" k="74" />
    <hkern u1="T" u2="w" k="74" />
    <hkern u1="T" u2="u" k="74" />
    <hkern u1="T" u2="r" k="74" />
    <hkern u1="T" u2="o" k="74" />
    <hkern u1="T" u2="i" k="18" />
    <hkern u1="T" u2="e" k="74" />
    <hkern u1="T" u2="a" k="74" />
    <hkern u1="T" u2="O" k="18" />
    <hkern u1="T" u2="A" k="55" />
    <hkern u1="T" u2="&#x3b;" k="74" />
    <hkern u1="T" u2="&#x3a;" k="74" />
    <hkern u1="T" u2="&#x2e;" k="92" />
    <hkern u1="T" u2="&#x2d;" k="74" />
    <hkern u1="T" u2="&#x2c;" k="92" />
    <hkern u1="U" u2="A" k="12" />
    <hkern u1="V" u2="u" k="18" />
    <hkern u1="V" u2="o" k="18" />
    <hkern u1="V" u2="e" k="18" />
    <hkern u1="V" u2="a" k="30" />
    <hkern u1="V" u2="O" k="18" />
    <hkern u1="V" u2="A" k="37" />
    <hkern u1="V" u2="&#x3b;" k="18" />
    <hkern u1="V" u2="&#x3a;" k="18" />
    <hkern u1="V" u2="&#x2e;" k="92" />
    <hkern u1="V" u2="&#x2d;" k="18" />
    <hkern u1="V" u2="&#x2c;" k="92" />
    <hkern u1="W" u2="o" k="18" />
    <hkern u1="W" u2="e" k="18" />
    <hkern u1="W" u2="a" k="18" />
    <hkern u1="W" u2="A" k="37" />
    <hkern u1="W" u2="&#x2e;" k="74" />
    <hkern u1="W" u2="&#x2d;" k="18" />
    <hkern u1="W" u2="&#x2c;" k="74" />
    <hkern u1="Y" u2="u" k="55" />
    <hkern u1="Y" u2="o" k="74" />
    <hkern u1="Y" u2="i" k="24" />
    <hkern u1="Y" u2="e" k="74" />
    <hkern u1="Y" u2="a" k="74" />
    <hkern u1="Y" u2="S" k="24" />
    <hkern u1="Y" u2="O" k="37" />
    <hkern u1="Y" u2="A" k="92" />
    <hkern u1="Y" u2="&#x3b;" k="37" />
    <hkern u1="Y" u2="&#x3a;" k="37" />
    <hkern u1="Y" u2="&#x2e;" k="111" />
    <hkern u1="Y" u2="&#x2d;" k="74" />
    <hkern u1="Y" u2="&#x2c;" k="111" />
    <hkern u1="a" u2="y" k="18" />
    <hkern u1="a" u2="w" k="12" />
    <hkern u1="a" u2="v" k="12" />
    <hkern u1="b" u2="y" k="18" />
    <hkern u1="b" u2="v" k="12" />
    <hkern u1="c" u2="y" k="18" />
    <hkern u1="f" u2="&#x201d;" k="-18" />
    <hkern u1="f" u2="&#x2019;" k="-18" />
    <hkern u1="k" u2="o" k="12" />
    <hkern u1="k" u2="e" k="12" />
    <hkern u1="o" u2="y" k="12" />
    <hkern u1="o" u2="v" k="6" />
    <hkern u1="p" u2="y" k="12" />
    <hkern u1="r" u2="q" k="18" />
    <hkern u1="r" u2="o" k="12" />
    <hkern u1="r" u2="g" k="12" />
    <hkern u1="r" u2="e" k="12" />
    <hkern u1="r" u2="d" k="12" />
    <hkern u1="r" u2="c" k="12" />
    <hkern u1="r" u2="a" k="12" />
    <hkern u1="r" u2="&#x2e;" k="74" />
    <hkern u1="r" u2="&#x2d;" k="37" />
    <hkern u1="r" u2="&#x2c;" k="74" />
    <hkern u1="s" u2="w" k="6" />
    <hkern u1="v" u2="o" k="6" />
    <hkern u1="v" u2="e" k="6" />
    <hkern u1="v" u2="a" k="6" />
    <hkern u1="v" u2="&#x2e;" k="55" />
    <hkern u1="v" u2="&#x2c;" k="55" />
    <hkern u1="w" u2="o" k="6" />
    <hkern u1="w" u2="e" k="6" />
    <hkern u1="w" u2="a" k="6" />
    <hkern u1="w" u2="&#x2e;" k="37" />
    <hkern u1="w" u2="&#x2c;" k="37" />
    <hkern u1="x" u2="e" k="6" />
    <hkern u1="y" u2="o" k="12" />
    <hkern u1="y" u2="e" k="12" />
    <hkern u1="y" u2="a" k="18" />
    <hkern u1="y" u2="&#x2e;" k="55" />
    <hkern u1="y" u2="&#x2c;" k="55" />
    <hkern u1="z" u2="o" k="6" />
    <hkern u1="z" u2="e" k="6" />
    <hkern u1="&#x2018;" u2="&#x2018;" k="37" />
    <hkern u1="&#x2018;" u2="A" k="37" />
    <hkern u1="&#x2019;" u2="&#x2019;" k="37" />
    <hkern u1="&#x2019;" u2="s" k="55" />
    <hkern u1="&#x2019;" u2="r" k="37" />
    <hkern u1="&#x201c;" u2="A" k="37" />
    <hkern u1="&#x201d;" u2="&#x20;" k="37" />
  </font>
</defs></svg>
